{
  "name": "Entei",
  "nationalPokedexNumber": 244,
  "primaryType": "fire",
  "abilities": [
    "pressure",
    "h:innerfocus"
  ],
  "baseStats": {
    "hp": 115,
    "attack": 115,
    "defence": 85,
    "special_attack": 90,
    "special_defence": 75,
    "speed": 100
  },
  "catchRate": 3,
  "maleRatio": -1,
  "shoulderMountable": false,
  "baseExperienceYield": 290,
  "experienceGroup": "slow",
  "eggCycles": 80,
  "eggGroups": [
    "undiscovered"
  ],
  "moves": [
    "1:ember",
    "1:extremespeed",
    "1:leer",
    "1:sacredfire",
    "1:smokescreen",
    "1:stomp",
    "6:flamewheel",
    "12:bite",
    "18:calmmind",
    "24:roar",
    "30:firefang",
    "36:scaryface",
    "42:crunch",
    "48:extrasensory",
    "54:lavaplume",
    "60:swagger",
    "66:sunnyday",
    "72:fireblast",
    "78:eruption",
    "tm:agility",
    "tm:bodyslam",
    "tm:bulldoze",
    "tm:calmmind",
    "tm:confide",
    "tm:crunch",
    "tm:dig",
    "tm:doubleteam",
    "tm:endure",
    "tm:facade",
    "tm:fireblast",
    "tm:firefang",
    "tm:firespin",
    "tm:flamecharge",
    "tm:flamethrower",
    "tm:flareblitz",
    "tm:frustration",
    "tm:gigaimpact",
    "tm:heatwave",
    "tm:helpinghand",
    "tm:hiddenpower",
    "tm:hyperbeam",
    "tm:incinerate",
    "tm:ironhead",
    "tm:irontail",
    "tm:naturalgift",
    "tm:overheat",
    "tm:protect",
    "tm:psychup",
    "tm:quash",
    "tm:raindance",
    "tm:reflect",
    "tm:rest",
    "tm:return",
    "tm:reversal",
    "tm:rockclimb",
    "tm:round",
    "tm:sandstorm",
    "tm:scaryface",
    "tm:secretpower",
    "tm:shadowball",
    "tm:sleeptalk",
    "tm:snarl",
    "tm:snore",
    "tm:solarbeam",
    "tm:stompingtantrum",
    "tm:stoneedge",
    "tm:substitute",
    "tm:sunnyday",
    "tm:swift",
    "tm:toxic",
    "tm:weatherball",
    "tm:willowisp",
    "tutor:crunch",
    "tutor:crushclaw",
    "tutor:curse",
    "tutor:cut",
    "tutor:detect",
    "tutor:doubleedge",
    "tutor:doubleteam",
    "tutor:extremespeed",
    "tutor:flamecharge",
    "tutor:flamethrower",
    "tutor:flash",
    "tutor:frustration",
    "tutor:headbutt",
    "tutor:hiddenpower",
    "tutor:howl",
    "tutor:laserfocus",
    "tutor:mimic",
    "tutor:mudslap",
    "tutor:psychup",
    "tutor:return",
    "tutor:rocksmash",
    "tutor:scaryface",
    "tutor:scorchingsands",
    "tutor:strength",
    "tutor:toxic"
  ],
  "labels": [
    "gen2",
    "legendary"
  ],
  "pokedex": [
    "cobblemon.species.entei.desc"
  ],
  "evolutions": [],
  "baseScale": 1,
  "hitbox": {
    "width": 1,
    "height": 1,
    "fixed": false
  },
  "baseFriendship": 35,
  "evYield": {
    "hp": 1,
    "attack": 2,
    "defence": 0,
    "special_attack": 0,
    "special_defence": 0,
    "speed": 0
  },
  "height": 21,
  "weight": 1980,
  "aspects": [],
  "cannotDynamax": false
}