{
  "name": "Noctowl",
  "nationalPokedexNumber": 164,
  "primaryType": "normal",
  "secondaryType": "flying",
  "abilities": [
    "insomnia",
    "keeneye",
    "h:tintedlens"
  ],
  "baseStats": {
    "hp": 100,
    "attack": 50,
    "defence": 50,
    "special_attack": 86,
    "special_defence": 96,
    "speed": 70
  },
  "catchRate": 90,
  "maleRatio": 0.5,
  "shoulderMountable": false,
  "baseExperienceYield": 158,
  "experienceGroup": "medium_fast",
  "eggCycles": 15,
  "eggGroups": [
    "flying"
  ],
  "moves": [
    "1:echoedvoice",
    "1:foresight",
    "1:growl",
    "1:peck",
    "1:skyattack",
    "1:tackle",
    "9:confusion",
    "12:reflect",
    "15:psychoshift",
    "18:airslash",
    "23:extrasensory",
    "28:takedown",
    "33:uproar",
    "38:roost",
    "43:moonblast",
    "48:hypnosis",
    "51:synchronoise",
    "53:dreameater",
    "tm:aerialace",
    "tm:agility",
    "tm:airslash",
    "tm:amnesia",
    "tm:attract",
    "tm:calmmind",
    "tm:captivate",
    "tm:confide",
    "tm:doubleteam",
    "tm:endure",
    "tm:facade",
    "tm:fly",
    "tm:frustration",
    "tm:futuresight",
    "tm:gigaimpact",
    "tm:heatwave",
    "tm:hiddenpower",
    "tm:hurricane",
    "tm:hyperbeam",
    "tm:hypervoice",
    "tm:imprison",
    "tm:nastyplot",
    "tm:naturalgift",
    "tm:pluck",
    "tm:protect",
    "tm:psychic",
    "tm:psychup",
    "tm:raindance",
    "tm:reflect",
    "tm:rest",
    "tm:return",
    "tm:round",
    "tm:screech",
    "tm:secretpower",
    "tm:shadowball",
    "tm:silverwind",
    "tm:sleeptalk",
    "tm:snore",
    "tm:steelwing",
    "tm:storedpower",
    "tm:substitute",
    "tm:sunnyday",
    "tm:swagger",
    "tm:swift",
    "tm:thief",
    "tm:toxic",
    "tm:uproar",
    "tm:workup",
    "tm:zenheadbutt",
    "tutor:aircutter",
    "tutor:curse",
    "tutor:defog",
    "tutor:detect",
    "tutor:doubleedge",
    "tutor:doubleteam",
    "tutor:dualwingbeat",
    "tutor:flash",
    "tutor:foresight",
    "tutor:frustration",
    "tutor:hiddenpower",
    "tutor:laserfocus",
    "tutor:magiccoat",
    "tutor:mimic",
    "tutor:mudslap",
    "tutor:nightmare",
    "tutor:ominouswind",
    "tutor:recycle",
    "tutor:return",
    "tutor:swagger",
    "tutor:tailwind",
    "tutor:toxic",
    "tutor:twister"
  ],
  "labels": [
    "gen2"
  ],
  "pokedex": [
    "cobblemon.species.noctowl.desc"
  ],
  "preEvolution": "hoothoot",
  "evolutions": [],
  "baseScale": 1,
  "hitbox": {
    "width": 1,
    "height": 1,
    "fixed": false
  },
  "baseFriendship": 50,
  "evYield": {
    "hp": 2,
    "attack": 0,
    "defence": 0,
    "special_attack": 0,
    "special_defence": 0,
    "speed": 0
  },
  "height": 16,
  "weight": 408,
  "aspects": [],
  "cannotDynamax": false
}