{
  "implemented": true,
  "name": "Piloswine",
  "nationalPokedexNumber": 221,
  "primaryType": "ice",
  "secondaryType": "ground",
  "abilities": [
    "oblivious",
    "snowcloak",
    "h:thickfat"
  ],
  "baseStats": {
    "hp": 100,
    "attack": 100,
    "defence": 80,
    "special_attack": 60,
    "special_defence": 60,
    "speed": 50
  },
  "catchRate": 75,
  "maleRatio": 0.5,
  "shoulderMountable": false,
  "baseExperienceYield": 158,
  "experienceGroup": "slow",
  "eggCycles": 20,
  "eggGroups": [
    "field"
  ],
  "drops": {
    "amount": "1",
    "entries": [
      {
        "item": "minecraft:brown_wool",
        "quantityRange": "1-2",
        "percentage": 66
      }
    ]
  },
  "moves": [
    "1:ancientpower",
    "1:flail",
    "1:furyattack",
    "1:hornattack",
    "1:mudslap",
    "1:mudsport",
    "1:odorsleuth",
    "1:peck",
    "1:powdersnow",
    "1:tackle",
    "15:iceshard",
    "18:mudbomb",
    "20:mist",
    "25:endure",
    "30:icywind",
    "37:amnesia",
    "44:takedown",
    "51:earthquake",
    "58:blizzard",
    "65:thrash",
    "tm:amnesia",
    "tm:attract",
    "tm:avalanche",
    "tm:blizzard",
    "tm:bodyslam",
    "tm:bulldoze",
    "tm:captivate",
    "tm:confide",
    "tm:dig",
    "tm:doubleteam",
    "tm:earthpower",
    "tm:earthquake",
    "tm:endure",
    "tm:facade",
    "tm:frustration",
    "tm:gigaimpact",
    "tm:hail",
    "tm:hiddenpower",
    "tm:highhorsepower",
    "tm:hyperbeam",
    "tm:icebeam",
    "tm:icefang",
    "tm:iciclespear",
    "tm:icywind",
    "tm:lightscreen",
    "tm:mudshot",
    "tm:naturalgift",
    "tm:protect",
    "tm:raindance",
    "tm:reflect",
    "tm:rest",
    "tm:return",
    "tm:roar",
    "tm:rockslide",
    "tm:rocktomb",
    "tm:round",
    "tm:sandstorm",
    "tm:sandtomb",
    "tm:scaryface",
    "tm:secretpower",
    "tm:sleeptalk",
    "tm:snore",
    "tm:stealthrock",
    "tm:stompingtantrum",
    "tm:stoneedge",
    "tm:substitute",
    "tm:superpower",
    "tm:swagger",
    "tm:toxic",
    "tutor:curse",
    "tutor:defensecurl",
    "tutor:detect",
    "tutor:doubleedge",
    "tutor:doubleteam",
    "tutor:endeavor",
    "tutor:frustration",
    "tutor:furyattack",
    "tutor:headbutt",
    "tutor:hiddenpower",
    "tutor:mimic",
    "tutor:return",
    "tutor:roar",
    "tutor:rocksmash",
    "tutor:strength",
    "tutor:swagger",
    "tutor:toxic"
  ],
  "labels": [
    "gen2"
  ],
  "pokedex": [
    "cobblemon.species.piloswine.desc"
  ],
  "preEvolution": "swinub",
  "evolutions": [
    {
      "id": "piloswine_mamoswine",
      "variant": "level_up",
      "result": "mamoswine",
      "consumeHeldItem": false,
      "learnableMoves": [],
      "requirements": [
        {
          "variant": "has_move",
          "move": "ancientpower"
        }
      ]
    }
  ],
  "baseScale": 1.1,
  "hitbox": {
    "width": 1,
    "height": 1,
    "fixed": false
  },
  "baseFriendship": 50,
  "evYield": {
    "hp": 1,
    "attack": 1,
    "defence": 0,
    "special_attack": 0,
    "special_defence": 0,
    "speed": 0
  },
  "height": 11,
  "weight": 558,
  "aspects": [],
  "cannotDynamax": false
}