{
  "name": "Clawitzer",
  "nationalPokedexNumber": 693,
  "primaryType": "water",
  "abilities": [
    "megalauncher"
  ],
  "baseStats": {
    "hp": 71,
    "attack": 73,
    "defence": 88,
    "special_attack": 120,
    "special_defence": 89,
    "speed": 59
  },
  "catchRate": 55,
  "maleRatio": 0.5,
  "shoulderMountable": false,
  "baseExperienceYield": 100,
  "experienceGroup": "slow",
  "eggCycles": 15,
  "eggGroups": [
    "water_1",
    "water_3"
  ],
  "moves": [
    "1:darkpulse",
    "1:dragonpulse",
    "1:flail",
    "1:healpulse",
    "1:splash",
    "1:visegrip",
    "1:watergun",
    "1:watersport",
    "12:bubble",
    "15:aquajet",
    "20:bubblebeam",
    "20:smackdown",
    "25:honeclaws",
    "30:waterpulse",
    "35:swordsdance",
    "42:aurasphere",
    "49:bounce",
    "56:muddywater",
    "63:crabhammer",
    "tm:attract",
    "tm:aurasphere",
    "tm:blizzard",
    "tm:bodyslam",
    "tm:chillingwater",
    "tm:confide",
    "tm:cut",
    "tm:darkpulse",
    "tm:dive",
    "tm:doubleteam",
    "tm:dragonpulse",
    "tm:endure",
    "tm:facade",
    "tm:flashcannon",
    "tm:focusblast",
    "tm:frustration",
    "tm:gigaimpact",
    "tm:helpinghand",
    "tm:hiddenpower",
    "tm:hydropump",
    "tm:hyperbeam",
    "tm:icebeam",
    "tm:icywind",
    "tm:irontail",
    "tm:liquidation",
    "tm:mudshot",
    "tm:mudslap",
    "tm:pounce",
    "tm:protect",
    "tm:raindance",
    "tm:rest",
    "tm:return",
    "tm:rockslide",
    "tm:round",
    "tm:scald",
    "tm:scaryface",
    "tm:secretpower",
    "tm:shadowball",
    "tm:sleeptalk",
    "tm:sludgebomb",
    "tm:sludgewave",
    "tm:snore",
    "tm:substitute",
    "tm:surf",
    "tm:swagger",
    "tm:swordsdance",
    "tm:takedown",
    "tm:terablast",
    "tm:thief",
    "tm:toxic",
    "tm:uturn",
    "tm:venoshock",
    "tm:waterfall",
    "tm:waterpulse",
    "tutor:aquatail",
    "tutor:flipturn",
    "tutor:laserfocus",
    "tutor:terrainpulse"
  ],
  "labels": [
    "gen6"
  ],
  "pokedex": [
    "cobblemon.species.clawitzer.desc"
  ],
  "preEvolution": "clauncher",
  "evolutions": [],
  "baseScale": 1,
  "hitbox": {
    "width": 1,
    "height": 1,
    "fixed": false
  },
  "baseFriendship": 50,
  "evYield": {
    "hp": 0,
    "attack": 0,
    "defence": 0,
    "special_attack": 2,
    "special_defence": 0,
    "speed": 0
  },
  "height": 13,
  "weight": 353,
  "aspects": [],
  "cannotDynamax": false
}