{
  "name": "Heliolisk",
  "nationalPokedexNumber": 695,
  "primaryType": "electric",
  "secondaryType": "normal",
  "abilities": [
    "dryskin",
    "sandveil",
    "h:solarpower"
  ],
  "baseStats": {
    "hp": 62,
    "attack": 55,
    "defence": 52,
    "special_attack": 109,
    "special_defence": 94,
    "speed": 109
  },
  "catchRate": 75,
  "maleRatio": 0.5,
  "shoulderMountable": false,
  "baseExperienceYield": 168,
  "experienceGroup": "medium_fast",
  "eggCycles": 20,
  "eggGroups": [
    "monster",
    "dragon"
  ],
  "moves": [
    "1:bulldoze",
    "1:charge",
    "1:discharge",
    "1:eerieimpulse",
    "1:electrify",
    "1:mudslap",
    "1:paraboliccharge",
    "1:pound",
    "1:quickattack",
    "1:razorwind",
    "1:tailwhip",
    "1:thunder",
    "1:thunderbolt",
    "1:thundershock",
    "1:thunderwave",
    "1:voltswitch",
    "tm:agility",
    "tm:allyswitch",
    "tm:attract",
    "tm:breakingswipe",
    "tm:brutalswing",
    "tm:bulldoze",
    "tm:chargebeam",
    "tm:confide",
    "tm:cut",
    "tm:darkpulse",
    "tm:dig",
    "tm:doubleteam",
    "tm:dragonpulse",
    "tm:dragontail",
    "tm:eerieimpulse",
    "tm:electricterrain",
    "tm:electroball",
    "tm:electroweb",
    "tm:endure",
    "tm:facade",
    "tm:firepunch",
    "tm:flash",
    "tm:focusblast",
    "tm:frustration",
    "tm:gigaimpact",
    "tm:grassknot",
    "tm:hiddenpower",
    "tm:hyperbeam",
    "tm:hypervoice",
    "tm:irontail",
    "tm:lightscreen",
    "tm:lowkick",
    "tm:lowsweep",
    "tm:megakick",
    "tm:megapunch",
    "tm:protect",
    "tm:psychup",
    "tm:raindance",
    "tm:rest",
    "tm:return",
    "tm:rockslide",
    "tm:rocktomb",
    "tm:round",
    "tm:sandstorm",
    "tm:secretpower",
    "tm:sleeptalk",
    "tm:snore",
    "tm:solarbeam",
    "tm:substitute",
    "tm:sunnyday",
    "tm:surf",
    "tm:swagger",
    "tm:swift",
    "tm:thunder",
    "tm:thunderbolt",
    "tm:thunderpunch",
    "tm:thunderwave",
    "tm:toxic",
    "tm:uturn",
    "tm:voltswitch",
    "tm:weatherball",
    "tm:wildcharge",
    "tutor:magnetrise",
    "tutor:risingvoltage",
    "tutor:scaleshot",
    "tutor:shockwave",
    "tutor:signalbeam"
  ],
  "labels": [
    "gen6"
  ],
  "pokedex": [
    "cobblemon.species.heliolisk.desc"
  ],
  "preEvolution": "helioptile",
  "evolutions": [],
  "baseScale": 1,
  "hitbox": {
    "width": 1,
    "height": 1,
    "fixed": false
  },
  "baseFriendship": 50,
  "evYield": {
    "hp": 0,
    "attack": 0,
    "defence": 0,
    "special_attack": 1,
    "special_defence": 0,
    "speed": 1
  },
  "height": 10,
  "weight": 210,
  "aspects": [],
  "cannotDynamax": false
}