{
  "name": "Pancham",
  "nationalPokedexNumber": 674,
  "primaryType": "fighting",
  "abilities": [
    "ironfist",
    "moldbreaker",
    "h:scrappy"
  ],
  "baseStats": {
    "hp": 67,
    "attack": 82,
    "defence": 62,
    "special_attack": 46,
    "special_defence": 48,
    "speed": 43
  },
  "catchRate": 220,
  "maleRatio": 0.5,
  "shoulderMountable": false,
  "baseExperienceYield": 70,
  "experienceGroup": "medium_fast",
  "eggCycles": 25,
  "eggGroups": [
    "field",
    "human_like"
  ],
  "moves": [
    "1:leer",
    "1:tackle",
    "4:armthrust",
    "8:taunt",
    "12:circlethrow",
    "12:karatechop",
    "15:cometpunch",
    "16:lowsweep",
    "20:workup",
    "24:slash",
    "28:vitalthrow",
    "33:crunch",
    "36:bodyslam",
    "40:partingshot",
    "44:entrainment",
    "48:skyuppercut",
    "egg:mefirst",
    "egg:powertrip",
    "egg:quash",
    "egg:quickguard",
    "egg:seismictoss",
    "egg:stormthrow",
    "tm:aerialace",
    "tm:attract",
    "tm:bodyslam",
    "tm:brickbreak",
    "tm:bulkup",
    "tm:bulldoze",
    "tm:confide",
    "tm:crunch",
    "tm:cut",
    "tm:darkpulse",
    "tm:dig",
    "tm:doubleteam",
    "tm:drainpunch",
    "tm:echoedvoice",
    "tm:endure",
    "tm:facade",
    "tm:falseswipe",
    "tm:firepunch",
    "tm:fling",
    "tm:foulplay",
    "tm:frustration",
    "tm:grassknot",
    "tm:gunkshot",
    "tm:helpinghand",
    "tm:hiddenpower",
    "tm:hypervoice",
    "tm:icepunch",
    "tm:ironhead",
    "tm:lowkick",
    "tm:lowsweep",
    "tm:megakick",
    "tm:megapunch",
    "tm:payback",
    "tm:poweruppunch",
    "tm:protect",
    "tm:raindance",
    "tm:rest",
    "tm:retaliate",
    "tm:return",
    "tm:roar",
    "tm:rockslide",
    "tm:rocksmash",
    "tm:rocktomb",
    "tm:round",
    "tm:secretpower",
    "tm:shadowclaw",
    "tm:sleeptalk",
    "tm:sludgebomb",
    "tm:snore",
    "tm:stoneedge",
    "tm:strength",
    "tm:substitute",
    "tm:sunnyday",
    "tm:superpower",
    "tm:surf",
    "tm:swagger",
    "tm:swordsdance",
    "tm:taunt",
    "tm:thunderpunch",
    "tm:torment",
    "tm:toxic",
    "tm:uproar",
    "tm:workup",
    "tm:zenheadbutt",
    "tutor:block",
    "tutor:coaching",
    "tutor:covet",
    "tutor:dualchop",
    "tutor:endeavor",
    "tutor:focuspunch",
    "tutor:knockoff",
    "tutor:lashout",
    "tutor:snatch",
    "tutor:spite"
  ],
  "labels": [
    "gen6"
  ],
  "pokedex": [
    "cobblemon.species.pancham.desc"
  ],
  "evolutions": [
    {
      "id": "pancham_pangoro",
      "variant": "level_up",
      "result": "pangoro",
      "consumeHeldItem": false,
      "learnableMoves": [
        "nightslash"
      ],
      "requirements": [
        {
          "variant": "level",
          "minLevel": 32
        },
        {
          "variant": "party_member",
          "target": "type=dark",
          "contains": true
        }
      ]
    }
  ],
  "baseScale": 1,
  "hitbox": {
    "width": 1,
    "height": 1,
    "fixed": false
  },
  "baseFriendship": 50,
  "evYield": {
    "hp": 0,
    "attack": 1,
    "defence": 0,
    "special_attack": 0,
    "special_defence": 0,
    "speed": 0
  },
  "height": 6,
  "weight": 80,
  "aspects": [],
  "cannotDynamax": false
}