{
  "name": "Skrelp",
  "nationalPokedexNumber": 690,
  "primaryType": "poison",
  "secondaryType": "water",
  "abilities": [
    "poisonpoint",
    "poisontouch",
    "h:adaptability"
  ],
  "baseStats": {
    "hp": 50,
    "attack": 60,
    "defence": 60,
    "special_attack": 60,
    "special_defence": 60,
    "speed": 30
  },
  "catchRate": 225,
  "maleRatio": 0.5,
  "shoulderMountable": false,
  "baseExperienceYield": 64,
  "experienceGroup": "medium_fast",
  "eggCycles": 20,
  "eggGroups": [
    "water_1",
    "dragon"
  ],
  "moves": [
    "1:smokescreen",
    "1:tackle",
    "5:acid",
    "5:feintattack",
    "10:watergun",
    "12:bubble",
    "15:tailwhip",
    "19:camouflage",
    "20:doubleteam",
    "25:poisontail",
    "30:waterpulse",
    "35:toxic",
    "40:dragonpulse",
    "45:aquatail",
    "50:sludgebomb",
    "55:hydropump",
    "egg:acidarmor",
    "egg:dragontail",
    "egg:haze",
    "egg:twister",
    "tm:acidspray",
    "tm:attract",
    "tm:bounce",
    "tm:chillingwater",
    "tm:confide",
    "tm:dive",
    "tm:dragonpulse",
    "tm:dragontail",
    "tm:endure",
    "tm:facade",
    "tm:frustration",
    "tm:gunkshot",
    "tm:hail",
    "tm:hiddenpower",
    "tm:hydropump",
    "tm:icywind",
    "tm:irontail",
    "tm:liquidation",
    "tm:mudshot",
    "tm:mudslap",
    "tm:outrage",
    "tm:playrough",
    "tm:poisontail",
    "tm:protect",
    "tm:raindance",
    "tm:rest",
    "tm:return",
    "tm:round",
    "tm:scald",
    "tm:scaryface",
    "tm:secretpower",
    "tm:shadowball",
    "tm:sleeptalk",
    "tm:sludgebomb",
    "tm:sludgewave",
    "tm:snore",
    "tm:snowscape",
    "tm:substitute",
    "tm:surf",
    "tm:swagger",
    "tm:takedown",
    "tm:terablast",
    "tm:thief",
    "tm:thunderbolt",
    "tm:toxicspikes",
    "tm:venomdrench",
    "tm:venoshock",
    "tm:waterfall",
    "tm:waterpulse",
    "tutor:flipturn",
    "tutor:scaleshot",
    "tutor:shockwave"
  ],
  "labels": [
    "gen6"
  ],
  "pokedex": [
    "cobblemon.species.skrelp.desc"
  ],
  "evolutions": [
    {
      "id": "skrelp_dragalge",
      "variant": "level_up",
      "result": "dragalge",
      "consumeHeldItem": false,
      "learnableMoves": [],
      "requirements": [
        {
          "variant": "level",
          "minLevel": 48
        }
      ]
    }
  ],
  "baseScale": 1,
  "hitbox": {
    "width": 1,
    "height": 1,
    "fixed": false
  },
  "baseFriendship": 50,
  "evYield": {
    "hp": 0,
    "attack": 0,
    "defence": 0,
    "special_attack": 0,
    "special_defence": 1,
    "speed": 0
  },
  "height": 5,
  "weight": 73,
  "aspects": [],
  "cannotDynamax": false
}