{
  "name": "Ceruledge",
  "nationalPokedexNumber": 937,
  "primaryType": "fire",
  "secondaryType": "ghost",
  "abilities": [
    "flashfire",
    "h:weakarmor"
  ],
  "baseStats": {
    "hp": 75,
    "attack": 125,
    "defence": 80,
    "special_attack": 60,
    "special_defence": 100,
    "speed": 85
  },
  "catchRate": 25,
  "maleRatio": 0.5,
  "baseExperienceYield": 0,
  "baseFriendship": 20,
  "evYield": {
    "hp": 0,
    "attack": 2,
    "defence": 0,
    "special_attack": 0,
    "special_defence": 0,
    "speed": 0
  },
  "experienceGroup": "slow",
  "eggCycles": 35,
  "eggGroups": [
    "human_like"
  ],
  "moves": [
    "1:astonish",
    "1:ember",
    "1:leer",
    "1:nightslash",
    "1:quickguard",
    "1:shadowsneak",
    "1:solarblade",
    "8:clearsmog",
    "12:firespin",
    "16:willowisp",
    "20:nightshade",
    "24:flamecharge",
    "28:incinerate",
    "32:lavaplume",
    "37:swordsdance",
    "42:allyswitch",
    "48:bitterblade",
    "56:psychocut",
    "62:flareblitz",
    "tm:brickbreak",
    "tm:bulkup",
    "tm:closecombat",
    "tm:confuseray",
    "tm:dragonclaw",
    "tm:endure",
    "tm:facade",
    "tm:falseswipe",
    "tm:fireblast",
    "tm:firespin",
    "tm:flamecharge",
    "tm:flamethrower",
    "tm:flareblitz",
    "tm:fling",
    "tm:heatwave",
    "tm:helpinghand",
    "tm:hex",
    "tm:irondefense",
    "tm:ironhead",
    "tm:lightscreen",
    "tm:nightshade",
    "tm:overheat",
    "tm:phantomforce",
    "tm:poisonjab",
    "tm:protect",
    "tm:reflect",
    "tm:rest",
    "tm:shadowball",
    "tm:shadowclaw",
    "tm:sleeptalk",
    "tm:storedpower",
    "tm:substitute",
    "tm:sunnyday",
    "tm:swordsdance",
    "tm:takedown",
    "tm:taunt",
    "tm:terablast",
    "tm:willowisp",
    "tm:xscissor"
  ],
  "labels": [
    "gen9"
  ],
  "aspects": [],
  "height": 16,
  "weight": 620,
  "preEvolution": "charcadet",
  "evolutions": [],
  "cannotDynamax": false,
  "pokedex": [
    "cobblemon.species.ceruledge.desc"
  ]
}