{
  "name": "Espathra",
  "nationalPokedexNumber": 956,
  "primaryType": "psychic",
  "abilities": [
    "opportunist",
    "frisk",
    "h:speedboost"
  ],
  "baseStats": {
    "hp": 95,
    "attack": 60,
    "defence": 60,
    "special_attack": 101,
    "special_defence": 60,
    "speed": 105
  },
  "catchRate": 60,
  "maleRatio": 0.5,
  "baseExperienceYield": 0,
  "baseFriendship": 50,
  "evYield": {
    "hp": 0,
    "attack": 0,
    "defence": 0,
    "special_attack": 0,
    "special_defence": 0,
    "speed": 2
  },
  "experienceGroup": "medium_slow",
  "eggCycles": 20,
  "eggGroups": [
    "flying"
  ],
  "moves": [
    "1:drillpeck",
    "1:featherdance",
    "1:growl",
    "1:peck",
    "5:confusion",
    "8:babydolleyes",
    "11:disarmingvoice",
    "15:quickattack",
    "19:psybeam",
    "24:pluck",
    "29:agility",
    "34:uproar",
    "43:dazzlinggleam",
    "49:psychic",
    "54:lastresort",
    "tm:aerialace",
    "tm:agility",
    "tm:batonpass",
    "tm:bodyslam",
    "tm:bravebird",
    "tm:calmmind",
    "tm:confuseray",
    "tm:dazzlinggleam",
    "tm:disarmingvoice",
    "tm:endure",
    "tm:energyball",
    "tm:facade",
    "tm:flashcannon",
    "tm:foulplay",
    "tm:gigaimpact",
    "tm:helpinghand",
    "tm:hex",
    "tm:hyperbeam",
    "tm:hypervoice",
    "tm:lightscreen",
    "tm:lowkick",
    "tm:mudslap",
    "tm:nightshade",
    "tm:pounce",
    "tm:protect",
    "tm:psybeam",
    "tm:psychic",
    "tm:psychicterrain",
    "tm:psyshock",
    "tm:raindance",
    "tm:reflect",
    "tm:rest",
    "tm:sandstorm",
    "tm:seedbomb",
    "tm:shadowball",
    "tm:skillswap",
    "tm:sleeptalk",
    "tm:storedpower",
    "tm:substitute",
    "tm:sunnyday",
    "tm:swift",
    "tm:takedown",
    "tm:terablast",
    "tm:thief",
    "tm:trick",
    "tm:trickroom",
    "tm:uturn",
    "tm:zenheadbutt"
  ],
  "labels": [
    "gen9"
  ],
  "aspects": [],
  "height": 19,
  "weight": 900,
  "preEvolution": "flittle",
  "evolutions": [],
  "cannotDynamax": false,
  "pokedex": [
    "cobblemon.species.espathra.desc"
  ]
}