{
  "name": "Archen",
  "nationalPokedexNumber": 566,
  "primaryType": "rock",
  "secondaryType": "flying",
  "abilities": [
    "defeatist"
  ],
  "baseStats": {
    "hp": 55,
    "attack": 112,
    "defence": 45,
    "special_attack": 74,
    "special_defence": 45,
    "speed": 70
  },
  "catchRate": 45,
  "maleRatio": 0.875,
  "shoulderMountable": false,
  "baseExperienceYield": 71,
  "experienceGroup": "medium_fast",
  "eggCycles": 30,
  "eggGroups": [
    "flying",
    "water_3"
  ],
  "moves": [
    "1:leer",
    "1:quickattack",
    "3:rockthrow",
    "6:wingattack",
    "9:dragonbreath",
    "12:ancientpower",
    "15:pluck",
    "18:quickguard",
    "21:uturn",
    "24:rockslide",
    "27:scaryface",
    "30:crunch",
    "33:agility",
    "36:tailwind",
    "39:dragonclaw",
    "42:thrash",
    "45:endeavor",
    "egg:bite",
    "egg:defog",
    "egg:doubleteam",
    "egg:headsmash",
    "egg:knockoff",
    "egg:switcheroo",
    "tm:acrobatics",
    "tm:aerialace",
    "tm:agility",
    "tm:allyswitch",
    "tm:assurance",
    "tm:attract",
    "tm:bounce",
    "tm:bulldoze",
    "tm:confide",
    "tm:crunch",
    "tm:cut",
    "tm:dig",
    "tm:dragonclaw",
    "tm:dragonpulse",
    "tm:earthpower",
    "tm:earthquake",
    "tm:endure",
    "tm:facade",
    "tm:frustration",
    "tm:heatwave",
    "tm:hiddenpower",
    "tm:honeclaws",
    "tm:irondefense",
    "tm:irontail",
    "tm:protect",
    "tm:rest",
    "tm:return",
    "tm:roar",
    "tm:rockblast",
    "tm:rockpolish",
    "tm:rockslide",
    "tm:rocksmash",
    "tm:rocktomb",
    "tm:roost",
    "tm:round",
    "tm:sandstorm",
    "tm:scaryface",
    "tm:secretpower",
    "tm:shadowclaw",
    "tm:sleeptalk",
    "tm:smackdown",
    "tm:snore",
    "tm:stealthrock",
    "tm:steelwing",
    "tm:stoneedge",
    "tm:substitute",
    "tm:swagger",
    "tm:swift",
    "tm:taunt",
    "tm:torment",
    "tm:toxic",
    "tm:uproar",
    "tm:uturn",
    "tm:zenheadbutt",
    "tutor:aquatail",
    "tutor:dualwingbeat",
    "tutor:lashout",
    "tutor:meteorbeam"
  ],
  "labels": [
    "gen5"
  ],
  "pokedex": [
    "cobblemon.species.archen.desc"
  ],
  "evolutions": [
    {
      "id": "archen_archeops",
      "variant": "level_up",
      "result": "archeops",
      "consumeHeldItem": false,
      "learnableMoves": [],
      "requirements": [
        {
          "variant": "level",
          "minLevel": 37
        }
      ]
    }
  ],
  "baseScale": 1,
  "hitbox": {
    "width": 1,
    "height": 1,
    "fixed": false
  },
  "baseFriendship": 50,
  "evYield": {
    "hp": 0,
    "attack": 1,
    "defence": 0,
    "special_attack": 0,
    "special_defence": 0,
    "speed": 0
  },
  "height": 5,
  "weight": 95,
  "aspects": [],
  "cannotDynamax": false
}