{
  "name": "Mandibuzz",
  "nationalPokedexNumber": 630,
  "primaryType": "dark",
  "secondaryType": "flying",
  "abilities": [
    "bigpecks",
    "overcoat",
    "h:weakarmor"
  ],
  "baseStats": {
    "hp": 110,
    "attack": 65,
    "defence": 105,
    "special_attack": 55,
    "special_defence": 95,
    "speed": 80
  },
  "catchRate": 60,
  "maleRatio": 0,
  "shoulderMountable": false,
  "baseExperienceYield": 179,
  "experienceGroup": "slow",
  "eggCycles": 20,
  "eggGroups": [
    "flying"
  ],
  "moves": [
    "1:flatter",
    "1:furyattack",
    "1:gust",
    "1:leer",
    "1:mirrormove",
    "1:pluck",
    "1:skyattack",
    "1:toxic",
    "18:tailwind",
    "23:feintattack",
    "24:knockoff",
    "28:punishment",
    "30:irondefense",
    "36:whirlwind",
    "42:airslash",
    "48:darkpulse",
    "50:embargo",
    "57:nastyplot",
    "64:defog",
    "72:attract",
    "80:bravebird",
    "tm:aerialace",
    "tm:airslash",
    "tm:assurance",
    "tm:attract",
    "tm:bravebird",
    "tm:confide",
    "tm:cut",
    "tm:darkpulse",
    "tm:doubleteam",
    "tm:embargo",
    "tm:endure",
    "tm:facade",
    "tm:faketears",
    "tm:fly",
    "tm:foulplay",
    "tm:frustration",
    "tm:gigaimpact",
    "tm:heatwave",
    "tm:hiddenpower",
    "tm:hyperbeam",
    "tm:incinerate",
    "tm:irondefense",
    "tm:nastyplot",
    "tm:payback",
    "tm:protect",
    "tm:psychup",
    "tm:raindance",
    "tm:rest",
    "tm:retaliate",
    "tm:return",
    "tm:rocksmash",
    "tm:rocktomb",
    "tm:roost",
    "tm:round",
    "tm:scaryface",
    "tm:secretpower",
    "tm:shadowball",
    "tm:sleeptalk",
    "tm:snarl",
    "tm:snore",
    "tm:steelwing",
    "tm:substitute",
    "tm:sunnyday",
    "tm:swagger",
    "tm:swift",
    "tm:taunt",
    "tm:thief",
    "tm:torment",
    "tm:uturn",
    "tutor:block",
    "tutor:dualwingbeat",
    "tutor:lashout",
    "tutor:snatch"
  ],
  "labels": [
    "gen5"
  ],
  "pokedex": [
    "cobblemon.species.mandibuzz.desc"
  ],
  "preEvolution": "vullaby",
  "evolutions": [],
  "baseScale": 1,
  "hitbox": {
    "width": 1,
    "height": 1,
    "fixed": false
  },
  "baseFriendship": 35,
  "evYield": {
    "hp": 0,
    "attack": 0,
    "defence": 0,
    "special_attack": 2,
    "special_defence": 0,
    "speed": 0
  },
  "height": 12,
  "weight": 395,
  "aspects": [],
  "cannotDynamax": false
}