{
  "name": "Rufflet",
  "nationalPokedexNumber": 627,
  "primaryType": "normal",
  "secondaryType": "flying",
  "abilities": [
    "keeneye",
    "sheerforce",
    "h:hustle"
  ],
  "baseStats": {
    "hp": 70,
    "attack": 83,
    "defence": 50,
    "special_attack": 37,
    "special_defence": 50,
    "speed": 60
  },
  "catchRate": 190,
  "maleRatio": 1,
  "shoulderMountable": false,
  "baseExperienceYield": 70,
  "experienceGroup": "slow",
  "eggCycles": 20,
  "eggGroups": [
    "flying"
  ],
  "moves": [
    "1:leer",
    "1:peck",
    "5:furyattack",
    "6:honeclaws",
    "12:wingattack",
    "18:tailwind",
    "24:scaryface",
    "30:aerialace",
    "36:slash",
    "42:whirlwind",
    "48:crushclaw",
    "50:skydrop",
    "55:airslash",
    "60:defog",
    "66:thrash",
    "72:bravebird",
    "egg:rocksmash",
    "egg:roost",
    "tm:acrobatics",
    "tm:aerialace",
    "tm:agility",
    "tm:aircutter",
    "tm:airslash",
    "tm:assurance",
    "tm:attract",
    "tm:bodyslam",
    "tm:bravebird",
    "tm:bulkup",
    "tm:closecombat",
    "tm:confide",
    "tm:cut",
    "tm:doubleteam",
    "tm:endure",
    "tm:facade",
    "tm:fly",
    "tm:frustration",
    "tm:heatwave",
    "tm:helpinghand",
    "tm:hiddenpower",
    "tm:hurricane",
    "tm:pluck",
    "tm:protect",
    "tm:raindance",
    "tm:rest",
    "tm:retaliate",
    "tm:return",
    "tm:rockslide",
    "tm:rocktomb",
    "tm:round",
    "tm:scaryface",
    "tm:secretpower",
    "tm:shadowclaw",
    "tm:skydrop",
    "tm:sleeptalk",
    "tm:snore",
    "tm:steelwing",
    "tm:strength",
    "tm:substitute",
    "tm:sunnyday",
    "tm:superpower",
    "tm:swagger",
    "tm:swift",
    "tm:tailwind",
    "tm:takedown",
    "tm:terablast",
    "tm:toxic",
    "tm:uturn",
    "tm:workup",
    "tm:zenheadbutt",
    "tutor:dualwingbeat"
  ],
  "labels": [
    "gen5"
  ],
  "pokedex": [
    "cobblemon.species.rufflet.desc"
  ],
  "evolutions": [
    {
      "id": "rufflet_braviary",
      "variant": "level_up",
      "result": "braviary",
      "consumeHeldItem": false,
      "learnableMoves": [
        "superpower"
      ],
      "requirements": [
        {
          "variant": "level",
          "minLevel": 54
        }
      ]
    },
    {
      "id": "rufflet_braviary",
      "variant": "level_up",
      "result": "braviary form=hisui",
      "consumeHeldItem": false,
      "learnableMoves": [
        "esperwing"
      ],
      "requirements": [
        {
          "variant": "level",
          "minLevel": 54
        }
      ]
    }
  ],
  "baseScale": 1,
  "hitbox": {
    "width": 1,
    "height": 1,
    "fixed": false
  },
  "baseFriendship": 50,
  "evYield": {
    "hp": 0,
    "attack": 1,
    "defence": 0,
    "special_attack": 0,
    "special_defence": 0,
    "speed": 0
  },
  "height": 5,
  "weight": 105,
  "aspects": [],
  "cannotDynamax": false
}