{
  "name": "Swadloon",
  "nationalPokedexNumber": 541,
  "primaryType": "bug",
  "secondaryType": "grass",
  "abilities": [
    "leafguard",
    "chlorophyll",
    "h:overcoat"
  ],
  "baseStats": {
    "hp": 55,
    "attack": 63,
    "defence": 90,
    "special_attack": 50,
    "special_defence": 80,
    "speed": 42
  },
  "catchRate": 120,
  "maleRatio": 0.5,
  "shoulderMountable": false,
  "baseExperienceYield": 133,
  "experienceGroup": "medium_slow",
  "eggCycles": 15,
  "eggGroups": [
    "bug"
  ],
  "moves": [
    "1:bugbite",
    "1:grasswhistle",
    "1:protect",
    "1:razorleaf",
    "1:stringshot",
    "1:tackle",
    "tm:attract",
    "tm:calmmind",
    "tm:confide",
    "tm:cut",
    "tm:doubleteam",
    "tm:dreameater",
    "tm:energyball",
    "tm:facade",
    "tm:flash",
    "tm:frustration",
    "tm:grassknot",
    "tm:hiddenpower",
    "tm:lightscreen",
    "tm:naturepower",
    "tm:payback",
    "tm:protect",
    "tm:rest",
    "tm:return",
    "tm:round",
    "tm:safeguard",
    "tm:secretpower",
    "tm:sleeptalk",
    "tm:solarbeam",
    "tm:strugglebug",
    "tm:substitute",
    "tm:sunnyday",
    "tm:swagger",
    "tm:toxic",
    "tutor:bugbite",
    "tutor:electroweb",
    "tutor:gigadrain",
    "tutor:irondefense",
    "tutor:magiccoat",
    "tutor:seedbomb",
    "tutor:signalbeam",
    "tutor:snore",
    "tutor:synthesis",
    "tutor:worryseed"
  ],
  "labels": [
    "gen5"
  ],
  "pokedex": [
    "cobblemon.species.swadloon.desc"
  ],
  "preEvolution": "sewaddle",
  "evolutions": [
    {
      "id": "swadloon_leavanny",
      "variant": "level_up",
      "result": "leavanny",
      "consumeHeldItem": false,
      "learnableMoves": [],
      "requirements": [
        {
          "variant": "friendship",
          "amount": 160
        }
      ]
    }
  ],
  "baseScale": 1,
  "hitbox": {
    "width": 1,
    "height": 1,
    "fixed": false
  },
  "baseFriendship": 70,
  "evYield": {
    "hp": 0,
    "attack": 0,
    "defence": 2,
    "special_attack": 0,
    "special_defence": 0,
    "speed": 0
  },
  "height": 5,
  "weight": 73,
  "aspects": [],
  "cannotDynamax": false
}