{
  "name": "Bastiodon",
  "nationalPokedexNumber": 411,
  "primaryType": "rock",
  "secondaryType": "steel",
  "abilities": [
    "sturdy",
    "h:soundproof"
  ],
  "baseStats": {
    "hp": 60,
    "attack": 52,
    "defence": 168,
    "special_attack": 47,
    "special_defence": 138,
    "speed": 30
  },
  "catchRate": 45,
  "maleRatio": 0.875,
  "shoulderMountable": false,
  "baseExperienceYield": 173,
  "experienceGroup": "erratic",
  "eggCycles": 30,
  "eggGroups": [
    "monster"
  ],
  "moves": [
    "1:block",
    "1:metalsound",
    "1:protect",
    "1:tackle",
    "1:taunt",
    "15:takedown",
    "19:irondefense",
    "24:swagger",
    "28:ancientpower",
    "36:endure",
    "43:metalburst",
    "51:ironhead",
    "58:heavyslam",
    "tm:attract",
    "tm:avalanche",
    "tm:blizzard",
    "tm:bulldoze",
    "tm:captivate",
    "tm:confide",
    "tm:dig",
    "tm:doubleteam",
    "tm:earthquake",
    "tm:facade",
    "tm:fireblast",
    "tm:flamethrower",
    "tm:flashcannon",
    "tm:frustration",
    "tm:gigaimpact",
    "tm:hiddenpower",
    "tm:hyperbeam",
    "tm:icebeam",
    "tm:incinerate",
    "tm:naturalgift",
    "tm:protect",
    "tm:raindance",
    "tm:rest",
    "tm:return",
    "tm:roar",
    "tm:rockpolish",
    "tm:rockslide",
    "tm:rocksmash",
    "tm:rocktomb",
    "tm:round",
    "tm:sandstorm",
    "tm:secretpower",
    "tm:sleeptalk",
    "tm:smackdown",
    "tm:stoneedge",
    "tm:strength",
    "tm:substitute",
    "tm:sunnyday",
    "tm:swagger",
    "tm:taunt",
    "tm:thunder",
    "tm:thunderbolt",
    "tm:torment",
    "tm:toxic",
    "tutor:block",
    "tutor:earthpower",
    "tutor:headbutt",
    "tutor:irondefense",
    "tutor:ironhead",
    "tutor:irontail",
    "tutor:magiccoat",
    "tutor:magnetrise",
    "tutor:mudslap",
    "tutor:outrage",
    "tutor:shockwave",
    "tutor:snore",
    "tutor:stealthrock",
    "tutor:stompingtantrum"
  ],
  "labels": [
    "gen4"
  ],
  "pokedex": [
    "cobblemon.species.bastiodon.desc"
  ],
  "preEvolution": "shieldon",
  "evolutions": [],
  "baseScale": 1,
  "hitbox": {
    "width": 1,
    "height": 1,
    "fixed": false
  },
  "baseFriendship": 70,
  "evYield": {
    "hp": 0,
    "attack": 0,
    "defence": 2,
    "special_attack": 0,
    "special_defence": 0,
    "speed": 0
  },
  "height": 13,
  "weight": 1495,
  "aspects": [],
  "cannotDynamax": false
}