{
  "implemented": true,
  "name": "Glaceon",
  "nationalPokedexNumber": 471,
  "primaryType": "ice",
  "abilities": [
    "snowcloak",
    "h:icebody"
  ],
  "baseStats": {
    "hp": 65,
    "attack": 60,
    "defence": 110,
    "special_attack": 130,
    "special_defence": 95,
    "speed": 65
  },
  "catchRate": 45,
  "maleRatio": 0.875,
  "shoulderMountable": false,
  "baseExperienceYield": 184,
  "experienceGroup": "medium_fast",
  "eggCycles": 35,
  "eggGroups": [
    "field"
  ],
  "moves": [
    "1:batonpass",
    "1:charm",
    "1:copycat",
    "1:covet",
    "1:doubleedge",
    "1:growl",
    "1:helpinghand",
    "1:swift",
    "1:tackle",
    "1:tailwhip",
    "1:takedown",
    "5:sandattack",
    "10:quickattack",
    "15:babydolleyes",
    "20:iceshard",
    "25:bite",
    "29:barrier",
    "30:icefang",
    "35:hail",
    "35:snowscape",
    "40:freezedry",
    "45:mirrorcoat",
    "50:blizzard",
    "55:lastresort",
    "tm:attract",
    "tm:auroraveil",
    "tm:avalanche",
    "tm:batonpass",
    "tm:blizzard",
    "tm:bodyslam",
    "tm:calmmind",
    "tm:captivate",
    "tm:charm",
    "tm:chillingwater",
    "tm:confide",
    "tm:dig",
    "tm:doubleteam",
    "tm:echoedvoice",
    "tm:endure",
    "tm:facade",
    "tm:faketears",
    "tm:focusenergy",
    "tm:frostbreath",
    "tm:frustration",
    "tm:gigaimpact",
    "tm:hail",
    "tm:helpinghand",
    "tm:hiddenpower",
    "tm:hyperbeam",
    "tm:hypervoice",
    "tm:icebeam",
    "tm:icefang",
    "tm:iciclespear",
    "tm:icywind",
    "tm:irontail",
    "tm:mudshot",
    "tm:mudslap",
    "tm:naturalgift",
    "tm:payday",
    "tm:protect",
    "tm:raindance",
    "tm:rest",
    "tm:retaliate",
    "tm:return",
    "tm:roar",
    "tm:rocksmash",
    "tm:round",
    "tm:secretpower",
    "tm:shadowball",
    "tm:sleeptalk",
    "tm:snore",
    "tm:snowscape",
    "tm:storedpower",
    "tm:strength",
    "tm:substitute",
    "tm:sunnyday",
    "tm:swagger",
    "tm:swift",
    "tm:takedown",
    "tm:terablast",
    "tm:toxic",
    "tm:waterpulse",
    "tm:weatherball",
    "tm:workup",
    "tutor:aquatail",
    "tutor:auroraveil",
    "tutor:celebrate",
    "tutor:headbutt",
    "tutor:healbell",
    "tutor:laserfocus",
    "tutor:signalbeam",
    "tutor:tripleaxel"
  ],
  "labels": [
    "gen4"
  ],
  "pokedex": [
    "cobblemon.species.glaceon.desc"
  ],
  "preEvolution": "eevee",
  "evolutions": [],
  "baseScale": 0.8,
  "hitbox": {
    "width": 0.9,
    "height": 1.1,
    "fixed": false
  },
  "baseFriendship": 35,
  "evYield": {
    "hp": 0,
    "attack": 0,
    "defence": 0,
    "special_attack": 2,
    "special_defence": 0,
    "speed": 0
  },
  "height": 8,
  "weight": 259,
  "aspects": [],
  "cannotDynamax": false
}