{
  "name": "Shieldon",
  "nationalPokedexNumber": 410,
  "primaryType": "rock",
  "secondaryType": "steel",
  "abilities": [
    "sturdy",
    "h:soundproof"
  ],
  "baseStats": {
    "hp": 30,
    "attack": 42,
    "defence": 118,
    "special_attack": 42,
    "special_defence": 88,
    "speed": 30
  },
  "catchRate": 45,
  "maleRatio": 0.875,
  "shoulderMountable": false,
  "baseExperienceYield": 70,
  "experienceGroup": "erratic",
  "eggCycles": 30,
  "eggGroups": [
    "monster"
  ],
  "moves": [
    "1:protect",
    "1:tackle",
    "6:taunt",
    "10:metalsound",
    "15:takedown",
    "19:irondefense",
    "24:swagger",
    "28:ancientpower",
    "33:endure",
    "37:metalburst",
    "42:ironhead",
    "46:heavyslam",
    "egg:bodyslam",
    "egg:counter",
    "egg:curse",
    "egg:doubleedge",
    "egg:fissure",
    "egg:focusenergy",
    "egg:guardsplit",
    "egg:headbutt",
    "egg:rockblast",
    "egg:scaryface",
    "egg:screech",
    "egg:stealthrock",
    "egg:wideguard",
    "tm:attract",
    "tm:blizzard",
    "tm:bulldoze",
    "tm:captivate",
    "tm:confide",
    "tm:dig",
    "tm:doubleteam",
    "tm:earthquake",
    "tm:facade",
    "tm:fireblast",
    "tm:flamethrower",
    "tm:flashcannon",
    "tm:frustration",
    "tm:hiddenpower",
    "tm:icebeam",
    "tm:incinerate",
    "tm:naturalgift",
    "tm:protect",
    "tm:raindance",
    "tm:rest",
    "tm:return",
    "tm:roar",
    "tm:rockpolish",
    "tm:rockslide",
    "tm:rocksmash",
    "tm:rocktomb",
    "tm:round",
    "tm:sandstorm",
    "tm:secretpower",
    "tm:sleeptalk",
    "tm:smackdown",
    "tm:stoneedge",
    "tm:strength",
    "tm:substitute",
    "tm:sunnyday",
    "tm:swagger",
    "tm:taunt",
    "tm:thunder",
    "tm:thunderbolt",
    "tm:torment",
    "tm:toxic",
    "tutor:earthpower",
    "tutor:irondefense",
    "tutor:ironhead",
    "tutor:irontail",
    "tutor:magnetrise",
    "tutor:mudslap",
    "tutor:shockwave",
    "tutor:snore",
    "tutor:stealthrock"
  ],
  "labels": [
    "gen4"
  ],
  "pokedex": [
    "cobblemon.species.shieldon.desc"
  ],
  "evolutions": [
    {
      "id": "shieldon_bastiodon",
      "variant": "level_up",
      "result": "bastiodon",
      "consumeHeldItem": false,
      "learnableMoves": [],
      "requirements": [
        {
          "variant": "level",
          "minLevel": 30
        }
      ]
    }
  ],
  "baseScale": 1,
  "hitbox": {
    "width": 1,
    "height": 1,
    "fixed": false
  },
  "baseFriendship": 70,
  "evYield": {
    "hp": 0,
    "attack": 0,
    "defence": 1,
    "special_attack": 0,
    "special_defence": 0,
    "speed": 0
  },
  "height": 5,
  "weight": 570,
  "aspects": [],
  "cannotDynamax": false
}