{
  "name": "Vespiquen",
  "nationalPokedexNumber": 416,
  "primaryType": "bug",
  "secondaryType": "flying",
  "abilities": [
    "pressure",
    "h:unnerve"
  ],
  "baseStats": {
    "hp": 70,
    "attack": 80,
    "defence": 102,
    "special_attack": 80,
    "special_defence": 102,
    "speed": 40
  },
  "catchRate": 45,
  "maleRatio": 0,
  "shoulderMountable": false,
  "baseExperienceYield": 166,
  "experienceGroup": "medium_slow",
  "eggCycles": 15,
  "eggGroups": [
    "bug"
  ],
  "moves": [
    "1:bugbite",
    "1:confuseray",
    "1:gust",
    "1:poisonsting",
    "1:strugglebug",
    "1:sweetscent",
    "4:furycutter",
    "8:aromaticmist",
    "9:pursuit",
    "12:fellstinger",
    "16:furyswipes",
    "20:swagger",
    "24:aromatherapy",
    "24:roost",
    "28:airslash",
    "29:healorder",
    "32:powergem",
    "36:toxic",
    "40:attackorder",
    "40:defendorder",
    "41:captivate",
    "44:destinybond",
    "tm:acrobatics",
    "tm:aerialace",
    "tm:agility",
    "tm:airslash",
    "tm:assurance",
    "tm:attract",
    "tm:beatup",
    "tm:bugbuzz",
    "tm:confide",
    "tm:confuseray",
    "tm:crosspoison",
    "tm:cut",
    "tm:doubleteam",
    "tm:endure",
    "tm:facade",
    "tm:flash",
    "tm:fling",
    "tm:frustration",
    "tm:gigaimpact",
    "tm:helpinghand",
    "tm:hex",
    "tm:hiddenpower",
    "tm:honeclaws",
    "tm:hurricane",
    "tm:hyperbeam",
    "tm:infestation",
    "tm:naturalgift",
    "tm:pinmissile",
    "tm:pollenpuff",
    "tm:pounce",
    "tm:powergem",
    "tm:protect",
    "tm:quash",
    "tm:raindance",
    "tm:rest",
    "tm:return",
    "tm:revenge",
    "tm:reversal",
    "tm:round",
    "tm:scaryface",
    "tm:screech",
    "tm:secretpower",
    "tm:silverwind",
    "tm:sleeptalk",
    "tm:sludgebomb",
    "tm:snore",
    "tm:spikes",
    "tm:strugglebug",
    "tm:substitute",
    "tm:sunnyday",
    "tm:swift",
    "tm:takedown",
    "tm:taunt",
    "tm:terablast",
    "tm:thief",
    "tm:toxicspikes",
    "tm:uproar",
    "tm:uturn",
    "tm:venoshock",
    "tm:xscissor",
    "tutor:aircutter",
    "tutor:defog",
    "tutor:dualwingbeat",
    "tutor:endeavor",
    "tutor:laserfocus",
    "tutor:mudslap",
    "tutor:ominouswind",
    "tutor:signalbeam",
    "tutor:stringshot",
    "tutor:tailwind"
  ],
  "labels": [
    "gen4"
  ],
  "pokedex": [
    "cobblemon.species.vespiquen.desc"
  ],
  "preEvolution": "combee",
  "evolutions": [],
  "baseScale": 1,
  "hitbox": {
    "width": 1,
    "height": 1,
    "fixed": false
  },
  "baseFriendship": 50,
  "evYield": {
    "hp": 0,
    "attack": 0,
    "defence": 1,
    "special_attack": 0,
    "special_defence": 1,
    "speed": 0
  },
  "height": 12,
  "weight": 385,
  "aspects": [],
  "cannotDynamax": false
}