{
	"format_version": "1.8.0",
	"animations": {
		"animation.klang.ground_idle": {
			"loop": true,
			"bones": {
				"body": {
					"rotation": [-5, 0, "16*math.sin(q.anim_time*90*1.5+180+50)"],
					"position": [0, "0.5+0.9*math.sin(q.anim_time*90*1+180)", 0]
				},
				"main_gear": {
					"rotation": [0, 0, "22.5+q.anim_time*-90*2"]
				},
				"gear2": {
					"rotation": [0, 0, "-22.5+q.anim_time*90*2"],
					"position": [-0.7, 0.2, 0]
				}
			}
		},
		"animation.klang.ground_walk": {
			"loop": true,
			"bones": {
				"body": {
					"rotation": [10, 0, "8*math.sin(q.anim_time*90*1.5+180+50)"],
					"position": [0, "0.5+0.9*math.sin(q.anim_time*90*3+180)", -0.5]
				},
				"main_gear": {
					"rotation": [0, 0, "22.5+q.anim_time*-90*2.2"]
				},
				"gear2": {
					"rotation": [0, 0, "-22.5+q.anim_time*90*2.2"],
					"position": [-0.7, 0.2, 0]
				}
			}
		}
	}
}