{
	"format_version": "1.8.0",
	"animations": {
		"animation.combusken.ground_idle": {
			"loop": true,
			"bones": {
				"arm_right": {
					"rotation": [0, 10, -40]
				},
				"forearm_right": {
					"rotation": [0, -45, 0]
				},
				"claws_right": {
					"rotation": [0, 0, -10]
				},
				"arm_left": {
					"rotation": [0, -10, 40]
				},
				"forearm_left": {
					"rotation": [0, 45, 0]
				},
				"claws_left": {
					"rotation": [0, 0, 10]
				},
				"tail1": {
					"rotation": [-15, 0, 0]
				},
				"tail2": {
					"rotation": [10, 0, 0]
				}
			}
		},
		"animation.combusken.blink": {
			"animation_length": 0.1667,
			"bones": {
				"eyelid_left": {
					"position": {
						"0.0": [0.1, 0, 0],
						"0.125": [0.1, 0, 0],
						"0.1667": [0, 0, 0]
					}
				},
				"eyelid_right": {
					"position": {
						"0.0": [-0.1, 0, 0],
						"0.125": [-0.1, 0, 0],
						"0.1667": [0, 0, 0]
					}
				}
			}
		}
	}
}