{
	"format_version": "1.12.0",
	"minecraft:geometry": [
		{
			"description": {
				"identifier": "geometry.combusken",
				"texture_width": 64,
				"texture_height": 64,
				"visible_bounds_width": 4,
				"visible_bounds_height": 3.5,
				"visible_bounds_offset": [0, 1.25, 0]
			},
			"bones": [
				{
					"name": "combusken",
					"pivot": [0, 0.25, 0]
				},
				{
					"name": "body",
					"parent": "combusken",
					"pivot": [0, 12.25, 0],
					"cubes": [
						{"origin": [-3, 7.25, -3], "size": [6, 10, 6], "inflate": 0.02, "uv": [0, 0]}
					]
				},
				{
					"name": "head",
					"parent": "body",
					"pivot": [0, 17.25, 0],
					"cubes": [
						{"origin": [-3, 17.25, -3], "size": [6, 7, 6], "uv": [0, 16]},
						{"origin": [-2, 19.5, -4.75], "size": [4, 1, 2], "uv": [18, 18]}
					]
				},
				{
					"name": "eyes",
					"parent": "head",
					"pivot": [0, 21, -1.75],
					"cubes": [
						{"origin": [-3.05, 19.5, -2.75], "size": [0, 3, 2], "inflate": 0.02, "pivot": [-3.05, 21, -1.75], "rotation": [5, 0, 0], "uv": [56, 5], "mirror": true},
						{"origin": [3.05, 19.5, -2.75], "size": [0, 3, 2], "inflate": 0.02, "pivot": [3.05, 21, -1.75], "rotation": [5, 0, 0], "uv": [56, 5]}
					]
				},
				{
					"name": "eyelids",
					"parent": "head",
					"pivot": [0, 21, -1.75],
					"cubes": [
						{"origin": [-2.95, 19.5, -2.75], "size": [1, 3, 2], "inflate": 0.04, "pivot": [-3.05, 21, -1.75], "rotation": [5, 0, 0], "uv": [56, 13], "mirror": true},
						{"origin": [1.95, 19.5, -2.75], "size": [1, 3, 2], "inflate": 0.04, "pivot": [3.05, 21, -1.75], "rotation": [5, 0, 0], "uv": [56, 13]}
					]
				},
				{
					"name": "comb_right1",
					"parent": "head",
					"pivot": [-2.25, 23.75, 0.75],
					"rotation": [-15, 0, -25],
					"cubes": [
						{"origin": [-3.75, 23.75, 0.75], "size": [3, 3, 0], "uv": [0, 16]}
					]
				},
				{
					"name": "comb_right2",
					"parent": "comb_right1",
					"pivot": [-2.25, 26.75, 0.75],
					"cubes": [
						{"origin": [-3.75, 26.75, 0.75], "size": [3, 3, 0], "uv": [18, 0]}
					]
				},
				{
					"name": "comb_mid1",
					"parent": "head",
					"pivot": [0, 24.25, 0.65],
					"rotation": [-10, 0, 0],
					"cubes": [
						{"origin": [-2, 24.25, 0.65], "size": [4, 5, 0], "uv": [41, 45]}
					]
				},
				{
					"name": "comb_mid2",
					"parent": "comb_mid1",
					"pivot": [0, 29.25, 0.65],
					"rotation": [-5, 0, 0],
					"cubes": [
						{"origin": [-2, 29.25, 0.65], "size": [4, 4, 0], "uv": [31, 50]}
					]
				},
				{
					"name": "comb_left1",
					"parent": "head",
					"pivot": [2.25, 23.75, 0.75],
					"rotation": [-15, 0, 25],
					"cubes": [
						{"origin": [0.75, 23.75, 0.75], "size": [3, 3, 0], "uv": [0, 3]}
					]
				},
				{
					"name": "comb_left2",
					"parent": "comb_left1",
					"pivot": [2.25, 26.75, 0.75],
					"cubes": [
						{"origin": [0.75, 26.75, 0.75], "size": [3, 3, 0], "uv": [0, 0]}
					]
				},
				{
					"name": "arm_right",
					"parent": "body",
					"pivot": [-3, 15.75, 0],
					"cubes": [
						{"origin": [-9, 14.75, -1.5], "size": [6, 2, 3], "uv": [40, 40]}
					]
				},
				{
					"name": "forearm_right",
					"parent": "arm_right",
					"pivot": [-9, 15.75, 1.5],
					"cubes": [
						{"origin": [-15, 14.75, -2], "size": [6, 2, 4], "uv": [34, 0]},
						{"origin": [-15.25, 14.25, -2.5], "size": [1, 3, 5], "uv": [19, 44]}
					]
				},
				{
					"name": "claws_right",
					"parent": "forearm_right",
					"pivot": [-15, 15.75, 0],
					"cubes": [
						{"origin": [-20, 14.75, 0], "size": [5, 2, 0], "uv": [50, 2]},
						{"origin": [-20, 14.75, -1.5], "size": [5, 2, 0], "uv": [50, 0]},
						{"origin": [-20, 14.75, 1.5], "size": [5, 2, 0], "uv": [49, 45]}
					]
				},
				{
					"name": "arm_left",
					"parent": "body",
					"pivot": [3, 15.75, 0],
					"cubes": [
						{"origin": [3, 14.75, -1.5], "size": [6, 2, 3], "uv": [35, 35]}
					]
				},
				{
					"name": "forearm_left",
					"parent": "arm_left",
					"pivot": [9, 15.75, 1.5],
					"cubes": [
						{"origin": [9, 14.75, -2], "size": [6, 2, 4], "uv": [30, 14]},
						{"origin": [14.25, 14.25, -2.5], "size": [1, 3, 5], "uv": [42, 26]}
					]
				},
				{
					"name": "claws_left",
					"parent": "forearm_left",
					"pivot": [15, 15.75, 0],
					"cubes": [
						{"origin": [15, 14.75, 0], "size": [5, 2, 0], "uv": [36, 26]},
						{"origin": [15, 14.75, -1.5], "size": [5, 2, 0], "uv": [34, 12]},
						{"origin": [15, 14.75, 1.5], "size": [5, 2, 0], "uv": [24, 21]}
					]
				},
				{
					"name": "fluff_right",
					"parent": "body",
					"pivot": [-0.5, 12.25, 0],
					"rotation": [0, 0, -10],
					"cubes": [
						{"origin": [-5.5, 12.25, -4], "size": [5, 0, 9], "inflate": 0.02, "uv": [15, 9]}
					]
				},
				{
					"name": "fluff_left",
					"parent": "body",
					"pivot": [0.5, 12.25, 0],
					"rotation": [0, 0, 10],
					"cubes": [
						{"origin": [0.5, 12.25, -4], "size": [5, 0, 9], "inflate": 0.02, "uv": [15, 0]}
					]
				},
				{
					"name": "leg_right",
					"parent": "body",
					"pivot": [-3, 8, -0.25],
					"cubes": [
						{"origin": [-6.75, 5, -3.25], "size": [6, 6, 6], "uv": [0, 29]}
					]
				},
				{
					"name": "leg_right_mid",
					"parent": "leg_right",
					"pivot": [-3.75, 5, -0.25],
					"cubes": [
						{"origin": [-5.25, 0.5, -1.75], "size": [3, 5, 3], "uv": [12, 41]}
					]
				},
				{
					"name": "foot_right",
					"parent": "leg_right_mid",
					"pivot": [-3.75, 1, -0.25],
					"cubes": [
						{"origin": [-5.75, 0, -3], "size": [4, 1, 5], "inflate": 0.02, "uv": [36, 20]}
					]
				},
				{
					"name": "toe_right1",
					"parent": "foot_right",
					"pivot": [-5.25, 0.5, -2.75],
					"rotation": [0, 15, 0],
					"cubes": [
						{"origin": [-5.75, 0, -5.75], "size": [1, 1, 3], "uv": [49, 17]}
					]
				},
				{
					"name": "toenail_right1",
					"parent": "toe_right1",
					"pivot": [-5.25, 1, -5.75],
					"cubes": [
						{"origin": [-5.25, 0, -6.75], "size": [0, 1, 1], "uv": [18, 4]}
					]
				},
				{
					"name": "toe_right2",
					"parent": "foot_right",
					"pivot": [-3.75, 0.5, -3],
					"cubes": [
						{"origin": [-4.25, 0, -6], "size": [1, 1, 3], "uv": [49, 21]}
					]
				},
				{
					"name": "toenail_right2",
					"parent": "toe_right2",
					"pivot": [-3.75, 1, -6],
					"cubes": [
						{"origin": [-3.75, 0, -7], "size": [0, 1, 1], "uv": [18, 15]}
					]
				},
				{
					"name": "toe_right3",
					"parent": "foot_right",
					"pivot": [-2.25, 0.5, -2.75],
					"rotation": [0, -15, 0],
					"cubes": [
						{"origin": [-2.75, 0, -5.75], "size": [1, 1, 3], "uv": [8, 49]}
					]
				},
				{
					"name": "toenail_right3",
					"parent": "toe_right3",
					"pivot": [-2.25, 1, -5.75],
					"cubes": [
						{"origin": [-2.25, 0, -6.75], "size": [0, 1, 1], "uv": [4, 18]}
					]
				},
				{
					"name": "toe_back_right",
					"parent": "foot_right",
					"pivot": [-3.75, 0.5, 2],
					"cubes": [
						{"origin": [-4.25, 0, 2], "size": [1, 1, 3], "uv": [49, 26]}
					]
				},
				{
					"name": "toenail_back_right",
					"parent": "toe_back_right",
					"pivot": [-3.75, 1, 5],
					"cubes": [
						{"origin": [-3.75, 0, 5], "size": [0, 1, 1], "uv": [18, 16]}
					]
				},
				{
					"name": "leg_left",
					"parent": "body",
					"pivot": [3, 8, -0.25],
					"cubes": [
						{"origin": [0.75, 5, -3.25], "size": [6, 6, 6], "uv": [18, 23]}
					]
				},
				{
					"name": "leg_left_mid",
					"parent": "leg_left",
					"pivot": [3.75, 5, -0.25],
					"cubes": [
						{"origin": [2.25, 0.5, -1.75], "size": [3, 5, 3], "uv": [0, 41]}
					]
				},
				{
					"name": "foot_left",
					"parent": "leg_left_mid",
					"pivot": [3.75, 1, -0.25],
					"cubes": [
						{"origin": [1.75, 0, -3], "size": [4, 1, 5], "inflate": 0.02, "uv": [34, 6]}
					]
				},
				{
					"name": "toe_left1",
					"parent": "foot_left",
					"pivot": [5.25, 0.5, -2.75],
					"rotation": [0, -15, 0],
					"cubes": [
						{"origin": [4.75, 0, -5.75], "size": [1, 1, 3], "uv": [0, 49]}
					]
				},
				{
					"name": "toenail_left1",
					"parent": "toe_left1",
					"pivot": [5.25, 1, -5.75],
					"cubes": [
						{"origin": [5.25, 0, -6.75], "size": [0, 1, 1], "uv": [18, 3]}
					]
				},
				{
					"name": "toe_left2",
					"parent": "foot_left",
					"pivot": [3.75, 0.5, -3],
					"cubes": [
						{"origin": [3.25, 0, -6], "size": [1, 1, 3], "uv": [46, 47]}
					]
				},
				{
					"name": "toenail_left2",
					"parent": "toe_left2",
					"pivot": [3.75, 1, -6],
					"cubes": [
						{"origin": [3.75, 0, -7], "size": [0, 1, 1], "uv": [18, 2]}
					]
				},
				{
					"name": "toe_left3",
					"parent": "foot_left",
					"pivot": [2.25, 0.5, -2.75],
					"rotation": [0, 15, 0],
					"cubes": [
						{"origin": [1.75, 0, -5.75], "size": [1, 1, 3], "uv": [47, 6]}
					]
				},
				{
					"name": "toenail_left3",
					"parent": "toe_left3",
					"pivot": [2.25, 1, -5.75],
					"cubes": [
						{"origin": [2.25, 0, -6.75], "size": [0, 1, 1], "uv": [2, 18]}
					]
				},
				{
					"name": "toe_back_left",
					"parent": "foot_left",
					"pivot": [3.75, 0.5, 2],
					"cubes": [
						{"origin": [3.25, 0, 2], "size": [1, 1, 3], "uv": [46, 12]}
					]
				},
				{
					"name": "toenail_back_left",
					"parent": "toe_back_left",
					"pivot": [3.75, 1, 5],
					"cubes": [
						{"origin": [3.75, 0, 5], "size": [0, 1, 1], "uv": [0, 18]}
					]
				},
				{
					"name": "tail1",
					"parent": "body",
					"pivot": [0, 9.5, 3],
					"cubes": [
						{"origin": [-1.5, 7.5, 2], "size": [3, 4, 5], "inflate": 0.02, "uv": [24, 35]}
					]
				},
				{
					"name": "tail2",
					"parent": "tail1",
					"pivot": [0, 7.5, 7],
					"cubes": [
						{"origin": [-1, 7.5, 7], "size": [2, 3, 3], "inflate": 0.02, "uv": [31, 44]}
					]
				}
			]
		}
	]
}