{
  "name": "Komala",
  "nationalPokedexNumber": 775,
  "primaryType": "normal",
  "abilities": [
    "comatose"
  ],
  "baseStats": {
    "hp": 65,
    "attack": 115,
    "defence": 65,
    "special_attack": 75,
    "special_defence": 95,
    "speed": 65
  },
  "catchRate": 45,
  "maleRatio": 0.5,
  "shoulderMountable": false,
  "baseExperienceYield": 168,
  "experienceGroup": "slow",
  "eggCycles": 20,
  "eggGroups": [
    "field"
  ],
  "moves": [
    "1:defensecurl",
    "1:rollout",
    "6:spitup",
    "6:stockpile",
    "6:swallow",
    "11:rapidspin",
    "16:yawn",
    "21:slam",
    "26:flail",
    "31:suckerpunch",
    "36:psychup",
    "41:woodhammer",
    "46:thrash",
    "egg:charm",
    "egg:playrough",
    "egg:sing",
    "egg:superpower",
    "egg:wish",
    "tm:acrobatics",
    "tm:attract",
    "tm:bodyslam",
    "tm:brickbreak",
    "tm:bulkup",
    "tm:bulldoze",
    "tm:calmmind",
    "tm:charm",
    "tm:confide",
    "tm:doubleteam",
    "tm:earthquake",
    "tm:endure",
    "tm:facade",
    "tm:fling",
    "tm:frustration",
    "tm:gigaimpact",
    "tm:gunkshot",
    "tm:hiddenpower",
    "tm:hyperbeam",
    "tm:icespinner",
    "tm:ironhead",
    "tm:lowkick",
    "tm:lowsweep",
    "tm:metalclaw",
    "tm:payback",
    "tm:playrough",
    "tm:protect",
    "tm:quash",
    "tm:raindance",
    "tm:return",
    "tm:reversal",
    "tm:rockslide",
    "tm:rocktomb",
    "tm:round",
    "tm:seedbomb",
    "tm:shadowclaw",
    "tm:sleeptalk",
    "tm:stompingtantrum",
    "tm:substitute",
    "tm:sunnyday",
    "tm:swagger",
    "tm:swordsdance",
    "tm:takedown",
    "tm:terablast",
    "tm:thief",
    "tm:toxic",
    "tm:trailblaze",
    "tm:uturn",
    "tm:workup",
    "tm:zenheadbutt",
    "tutor:endeavor",
    "tutor:knockoff",
    "tutor:lastresort",
    "tutor:snore"
  ],
  "labels": [
    "gen7"
  ],
  "pokedex": [
    "cobblemon.species.komala.desc"
  ],
  "evolutions": [],
  "baseScale": 1,
  "hitbox": {
    "width": 1,
    "height": 1,
    "fixed": false
  },
  "baseFriendship": 70,
  "evYield": {
    "hp": 0,
    "attack": 2,
    "defence": 0,
    "special_attack": 0,
    "special_defence": 0,
    "speed": 0
  },
  "height": 4,
  "weight": 199,
  "aspects": [],
  "cannotDynamax": false
}