{
  "implemented": true,
  "name": "Tsareena",
  "nationalPokedexNumber": 763,
  "primaryType": "grass",
  "abilities": [
    "leafguard",
    "queenlymajesty",
    "h:sweetveil"
  ],
  "baseStats": {
    "hp": 72,
    "attack": 120,
    "defence": 98,
    "special_attack": 50,
    "special_defence": 98,
    "speed": 72
  },
  "catchRate": 45,
  "maleRatio": 0,
  "shoulderMountable": false,
  "baseExperienceYield": 255,
  "experienceGroup": "medium_slow",
  "eggCycles": 20,
  "eggGroups": [
    "grass"
  ],
  "moves": [
    "1:doubleslap",
    "1:flail",
    "1:playnice",
    "1:powerwhip",
    "1:punishment",
    "1:rapidspin",
    "1:razorleaf",
    "1:splash",
    "1:swagger",
    "16:sweetscent",
    "22:magicalleaf",
    "28:stomp",
    "34:teeterdance",
    "37:captivate",
    "40:aromaticmist",
    "46:aromatherapy",
    "46:leafstorm",
    "58:highjumpkick",
    "tm:acrobatics",
    "tm:attract",
    "tm:bounce",
    "tm:bulletseed",
    "tm:charm",
    "tm:confide",
    "tm:dazzlinggleam",
    "tm:doubleteam",
    "tm:drainingkiss",
    "tm:endure",
    "tm:energyball",
    "tm:facade",
    "tm:fling",
    "tm:frustration",
    "tm:gigadrain",
    "tm:gigaimpact",
    "tm:grassknot",
    "tm:grassyterrain",
    "tm:helpinghand",
    "tm:hiddenpower",
    "tm:hyperbeam",
    "tm:leafstorm",
    "tm:lightscreen",
    "tm:lowkick",
    "tm:lowsweep",
    "tm:magicalleaf",
    "tm:megakick",
    "tm:naturepower",
    "tm:payback",
    "tm:playrough",
    "tm:protect",
    "tm:reflect",
    "tm:rest",
    "tm:return",
    "tm:round",
    "tm:safeguard",
    "tm:seedbomb",
    "tm:sleeptalk",
    "tm:snore",
    "tm:solarbeam",
    "tm:solarblade",
    "tm:substitute",
    "tm:sunnyday",
    "tm:swift",
    "tm:takedown",
    "tm:taunt",
    "tm:terablast",
    "tm:toxic",
    "tm:trailblaze",
    "tm:uturn",
    "tm:zenheadbutt",
    "tutor:covet",
    "tutor:endeavor",
    "tutor:grassyglide",
    "tutor:knockoff",
    "tutor:laserfocus",
    "tutor:synthesis",
    "tutor:tripleaxel",
    "tutor:worryseed"
  ],
  "labels": [
    "gen7"
  ],
  "pokedex": [
    "cobblemon.species.tsareena.desc"
  ],
  "preEvolution": "steenee",
  "evolutions": [],
  "baseScale": 0.6,
  "hitbox": {
    "width": 0.9,
    "height": 2.2,
    "fixed": false
  },
  "baseFriendship": 50,
  "evYield": {
    "hp": 0,
    "attack": 3,
    "defence": 0,
    "special_attack": 0,
    "special_defence": 0,
    "speed": 0
  },
  "height": 12,
  "weight": 214,
  "aspects": [],
  "cannotDynamax": false
}