{
  "species": "cobblemon:zubat",
  "order": 0,
  "variations": [
    {
      "aspects": [],
      "poser": "cobblemon:zubat",
      "model": "cobblemon:zubat.geo",
      "texture": "cobblemon:textures/pokemon/0041_zubat/zubat_male.png",
      "layers": []
    }
  ]
}