{
	"format_version": "1.8.0",
	"animations": {
		"animation.mawile.ground_idle": {
			"loop": true,
			"bones": {
				"arm_left": {
					"rotation": [0, 0, 35]
				},
				"arm_left2": {
					"rotation": [0, 12.5, 0]
				},
				"finger_left": {
					"rotation": [0, 0, 27.5]
				},
				"finger_left2": {
					"rotation": [0, 0, 17.5]
				},
				"finger_left3": {
					"rotation": [0, 0, 27.5]
				},
				"hair_left": {
					"rotation": [0, 0, 45]
				},
				"hair_left2": {
					"rotation": [0, 0, 37.5]
				},
				"leg_left": {
					"rotation": [0, -5, 0]
				},
				"leg_right": {
					"rotation": [0, 5, 0]
				},
				"arm_right": {
					"rotation": [0, 0, -35]
				},
				"arm_right2": {
					"rotation": [0, -12.5, 0]
				},
				"finger_right": {
					"rotation": [0, 0, -27.5]
				},
				"finger_right2": {
					"rotation": [0, 0, -17.5]
				},
				"finger_right3": {
					"rotation": [0, 0, -27.5]
				},
				"hair_right": {
					"rotation": [0, 0, -45]
				},
				"hair_right2": {
					"rotation": [0, 0, -37.5]
				},
				"mouth": {
					"rotation": [-40, 0, 0]
				},
				"mouth2": {
					"rotation": [-42.5, 0, 0]
				},
				"mouth_top2": {
					"rotation": [12.5, 0, 0]
				},
				"mouth_top3": {
					"rotation": [15, 0, 0]
				},
				"jaw": {
					"rotation": [-17.5, 0, 0]
				},
				"jaw2": {
					"rotation": [17.5, 0, 0]
				},
				"jaw3": {
					"rotation": [20, 0, 0]
				},
				"mouth3": {
					"rotation": [-35, 0, 0]
				}
			}
		},
		"animation.mawile.cry": {
			"animation_length": 1.5,
			"bones": {
				"neck": {
					"rotation": {
						"0.0": [0, 0, 0],
						"0.25": [10, 0, 0],
						"1.25": [10, 0, 0],
						"1.5": [0, 0, 0]
					}
				},
				"head": {
					"rotation": {
						"0.0": [0, 0, 0],
						"0.25": [-15, 0, 0],
						"1.25": [-15, 0, 0],
						"1.5": [0, 0, 0]
					}
				},
				"head2": {
					"rotation": {
						"0.0": [0, 0, 0],
						"0.25": [-15, 0, 0],
						"1.25": [-15, 0, 0],
						"1.5": [0, 0, 0]
					}
				},
				"mouth_closed2": {
					"position": {
						"0.25": [0, 0, -0.1],
						"0.3333": [0, 0, 0],
						"1.1667": [0, 0, 0],
						"1.25": [0, 0, -0.1]
					}
				},
				"mouth_open2": {
					"position": {
						"0.0": [0, 0, 0.1],
						"0.25": [0, 0, 0],
						"1.25": [0, 0, 0],
						"1.5": [0, 0, 0.1]
					}
				},
				"head3": {
					"rotation": {
						"0.0": [0, 0, 0],
						"0.25": [-15, 0, 0],
						"1.25": [-15, 0, 0],
						"1.5": [0, 0, 0]
					}
				},
				"mouth_closed3": {
					"position": {
						"0.25": [0, 0, -0.1],
						"0.3333": [0, 0, 0],
						"1.1667": [0, 0, 0],
						"1.25": [0, 0, -0.1]
					}
				},
				"mouth_open3": {
					"position": {
						"0.0": [0, 0, 0.1],
						"0.25": [0, 0, 0],
						"1.25": [0, 0, 0],
						"1.5": [0, 0, 0.1]
					}
				},
				"mouth_open": {
					"position": {
						"0.0": [0, 0, 0],
						"0.25": [0, 0, -0.1],
						"1.25": [0, 0, -0.1],
						"1.5": [0, 0, 0]
					}
				},
				"mouth_closed": {
					"position": {
						"0.25": [0, 0, 0],
						"0.3333": [0, 0, 0.1],
						"1.1667": [0, 0, 0.1],
						"1.25": [0, 0, 0]
					}
				}
			}
		},
		"animation.mawile.blink": {
			"animation_length": 0.16667,
			"bones": {
				"eyelid_left": {
					"position": {
						"0.0": [0.1, 0, -0.1],
						"0.125": [0.1, 0, -0.1],
						"0.1667": [0, 0, 0]
					}
				},
				"eyelid_right": {
					"position": {
						"0.0": [-0.1, 0, -0.1],
						"0.125": [-0.1, 0, -0.1],
						"0.1667": [0, 0, 0]
					}
				}
			}
		}
	}
}