{
  "name": "Arrokuda",
  "nationalPokedexNumber": 846,
  "primaryType": "water",
  "abilities": [
    "swiftswim",
    "h:propellertail"
  ],
  "baseStats": {
    "hp": 41,
    "attack": 63,
    "defence": 40,
    "special_attack": 40,
    "special_defence": 30,
    "speed": 66
  },
  "catchRate": 255,
  "maleRatio": 0.5,
  "shoulderMountable": false,
  "baseExperienceYield": 56,
  "experienceGroup": "slow",
  "eggCycles": 20,
  "eggGroups": [
    "water_2"
  ],
  "moves": [
    "1:aquajet",
    "1:peck",
    "6:furyattack",
    "12:bite",
    "18:agility",
    "24:dive",
    "30:focusenergy",
    "30:laserfocus",
    "36:crunch",
    "42:liquidation",
    "48:doubleedge",
    "egg:acupressure",
    "egg:nightslash",
    "egg:slash",
    "egg:thrash",
    "tm:agility",
    "tm:assurance",
    "tm:attract",
    "tm:bounce",
    "tm:brickbreak",
    "tm:chillingwater",
    "tm:closecombat",
    "tm:crunch",
    "tm:drillrun",
    "tm:endure",
    "tm:facade",
    "tm:hydropump",
    "tm:icefang",
    "tm:liquidation",
    "tm:poisonjab",
    "tm:protect",
    "tm:psychicfangs",
    "tm:raindance",
    "tm:rest",
    "tm:round",
    "tm:scald",
    "tm:sleeptalk",
    "tm:snore",
    "tm:substitute",
    "tm:surf",
    "tm:swift",
    "tm:takedown",
    "tm:terablast",
    "tm:throatchop",
    "tm:waterfall",
    "tm:waterpulse",
    "tm:whirlpool",
    "tutor:scaleshot"
  ],
  "labels": [
    "gen8"
  ],
  "pokedex": [
    "cobblemon.species.arrokuda.desc"
  ],
  "evolutions": [
    {
      "id": "arrokuda_barraskewda",
      "variant": "level_up",
      "result": "barraskewda",
      "consumeHeldItem": false,
      "learnableMoves": [],
      "requirements": [
        {
          "variant": "level",
          "minLevel": 26
        }
      ]
    }
  ],
  "baseScale": 1,
  "hitbox": {
    "width": 1,
    "height": 1,
    "fixed": false
  },
  "baseFriendship": 50,
  "evYield": {
    "hp": 0,
    "attack": 0,
    "defence": 0,
    "special_attack": 0,
    "special_defence": 0,
    "speed": 1
  },
  "height": 5,
  "weight": 10,
  "aspects": [],
  "cannotDynamax": false
}