{
    "enabled": true,
    "neededInstalledMods": [],
    "neededUninstalledMods": [],
    "spawns": [
        {
            "id": "butterfree-1",
            "pokemon": "butterfree",
            "type": "pokemon",
            "context": "grounded",
            "bucket": "common",
            "level": "10-39",
            "weight": 1.0,
            "condition": {
                "canSeeSky": true,
                "biomes": [
                    "#cobblemon:is_temperate"
                ],
                "timeRange": "day",
                "isRaining": false
            },
            "anticondition": {
                "biomes": [
                    "#cobblemon:is_spooky"
                ]
            }
        },
		{
            "id": "butterfree-valencian-1",
            "pokemon": "butterfree valencian",
            "type": "pokemon",
            "context": "grounded",
            "bucket": "common",
            "level": "10-39",
            "weight": 1.0,
            "condition": {
                "canSeeSky": true,
                "biomes": [
                    "#cobblemon:is_jungle"
                ],
                "timeRange": "day",
                "isRaining": false
            }
        }
    ]
}