{
    "enabled": true,
    "neededInstalledMods": [],
    "neededUninstalledMods": [],
    "spawns": [
        {
            "id": "sandshrew-1",
            "pokemon": "sandshrew",
            "type": "pokemon",
            "context": "grounded",
            "bucket": "common",
            "level": "6-30",
            "weight": 9.0,
            "condition": {
				"canSeeSky": true,
                "biomes": [
                    "#cobblemon:is_sandy"
                ]
            }
        },
		{
            "id": "sandshrew-2",
            "pokemon": "sandshrew",
			"presets": [
                "underground"
            ],
            "type": "pokemon",
            "context": "grounded",
            "bucket": "common",
            "level": "6-30",
            "weight": 9.0,
            "condition": {
                "canSeeSky": false,
				"biomes": [
                    "#cobblemon:is_sandy"
                ]
            }
        }
    ]
}