{
    "enabled": true,
    "neededInstalledMods": [],
    "neededUninstalledMods": [],
    "spawns": [
        {
            "id": "nidorino-1",
            "pokemon": "nidorino",
            "type": "pokemon",
            "context": "grounded",
            "bucket": "uncommon",
            "level": "16-36",
            "weight": 0.9,
            "condition": {
                "canSeeSky": true,
                "biomes": [
                    "#cobblemon:is_savanna"
                ],
                "timeRange": "day"
            }
        }
    ]
}