{
    "enabled": true,
    "neededInstalledMods": [],
    "neededUninstalledMods": [],
    "spawns": [
        {
            "id": "poliwhirl-1",
            "pokemon": "poliwhirl",
            "presets": [
                "freshwater"
            ],
            "type": "pokemon",
            "context": "grounded",
            "bucket": "common",
            "level": "25-38",
            "weight": 0.9,
            "condition": {
                "canSeeSky": true,
                "isRaining": true,
				"neededNearbyBlocks": [
                    "minecraft:lily_pad"
                ]
            }
        },
        {
            "id": "poliwhirl-2",
            "pokemon": "poliwhirl",
            "presets": [
                "freshwater",
                "underwater"
            ],
            "type": "pokemon",
            "context": "submerged",
            "bucket": "common",
            "level": "25-38",
            "weight": 0.9,
            "condition": {
                "canSeeSky": true,
				"neededNearbyBlocks": [
                    "minecraft:lily_pad"
                ]
            }
        }
    ]
}