{
    "enabled": true,
    "neededInstalledMods": [],
    "neededUninstalledMods": [],
    "spawns": [
        {
            "id": "tangela-1",
            "pokemon": "tangela",
            "type": "pokemon",
            "context": "grounded",
            "bucket": "common",
            "level": "8-23",
            "weight": 1.8,
            "condition": {
                "canSeeSky": true,
                "biomes": [
                    "#cobblemon:is_jungle"
                ]
            }
        }
    ]
}