{
    "enabled": true,
    "neededInstalledMods": [],
    "neededUninstalledMods": [],
    "spawns": [
        {
            "id": "maractus-1",
            "pokemon": "maractus",
            "type": "pokemon",
            "context": "grounded",
            "bucket": "common",
            "level": "8-46",
            "weight": 10.0,
            "condition": {
                "canSeeSky": true,
                "biomes": [
                    "#cobblemon:is_sandy"
                ]
            }
        }
    ]
}