{
  "implemented": true,
  "name": "Nidoran-M",
  "nationalPokedexNumber": 32,
  "primaryType": "poison",
  "abilities": [
    "poisonpoint",
    "rivalry",
    "h:hustle"
  ],
  "baseStats": {
    "hp": 46,
    "attack": 57,
    "defence": 40,
    "special_attack": 40,
    "special_defence": 40,
    "speed": 50
  },
  "behaviour": {
    "resting": {
      "canSleep": true,
      "willSleepOnBed": false,
      "depth": "normal",
      "light": "0-4"
    }
  },
  "catchRate": 235,
  "maleRatio": 1,
  "shoulderMountable": false,
  "baseExperienceYield": 55,
  "experienceGroup": "medium_slow",
  "eggCycles": 20,
  "eggGroups": [
    "monster",
    "field"
  ],
  "moves": [
    "1:leer",
    "1:poisonsting",
    "5:peck",
    "10:focusenergy",
    "15:furyattack",
    "20:toxicspikes",
    "25:doublekick",
    "30:hornattack",
    "35:helpinghand",
    "40:toxic",
    "43:captivate",
    "45:flatter",
    "50:poisonjab",
    "55:earthpower",
    "egg:chipaway",
    "egg:confusion",
    "egg:counter",
    "egg:disable",
    "egg:headsmash",
    "egg:horndrill",
    "egg:poisontail",
    "egg:suckerpunch",
    "egg:supersonic",
    "egg:takedown",
    "egg:thrash",
    "tm:amnesia",
    "tm:attract",
    "tm:beatup",
    "tm:blizzard",
    "tm:bodyslam",
    "tm:confide",
    "tm:cut",
    "tm:dig",
    "tm:doubleteam",
    "tm:drillrun",
    "tm:earthpower",
    "tm:echoedvoice",
    "tm:endure",
    "tm:facade",
    "tm:focusenergy",
    "tm:frustration",
    "tm:helpinghand",
    "tm:hiddenpower",
    "tm:honeclaws",
    "tm:icebeam",
    "tm:irontail",
    "tm:naturalgift",
    "tm:poisonjab",
    "tm:protect",
    "tm:raindance",
    "tm:rest",
    "tm:return",
    "tm:rocksmash",
    "tm:round",
    "tm:secretpower",
    "tm:shadowclaw",
    "tm:sleeptalk",
    "tm:sludgebomb",
    "tm:smartstrike",
    "tm:snore",
    "tm:strength",
    "tm:substitute",
    "tm:sunnyday",
    "tm:swagger",
    "tm:thief",
    "tm:thunder",
    "tm:thunderbolt",
    "tm:toxicspikes",
    "tm:venomdrench",
    "tm:venoshock",
    "tutor:bide",
    "tutor:blizzard",
    "tutor:curse",
    "tutor:defensecurl",
    "tutor:detect",
    "tutor:dig",
    "tutor:doubleedge",
    "tutor:doublekick",
    "tutor:doubleteam",
    "tutor:drillrun",
    "tutor:facade",
    "tutor:focusenergy",
    "tutor:frustration",
    "tutor:furyattack",
    "tutor:headbutt",
    "tutor:helpinghand",
    "tutor:hiddenpower",
    "tutor:hornattack",
    "tutor:horndrill",
    "tutor:icebeam",
    "tutor:irontail",
    "tutor:leer",
    "tutor:mimic",
    "tutor:mudslap",
    "tutor:peck",
    "tutor:poisonjab",
    "tutor:poisonsting",
    "tutor:protect",
    "tutor:rage",
    "tutor:reflect",
    "tutor:rest",
    "tutor:return",
    "tutor:shockwave",
    "tutor:skullbash",
    "tutor:sludgebomb",
    "tutor:substitute",
    "tutor:superfang",
    "tutor:swagger",
    "tutor:tackle",
    "tutor:thunder",
    "tutor:thunderbolt",
    "tutor:toxic",
    "tutor:waterpulse"
  ],
  "labels": [
    "gen1"
  ],
  "pokedex": [
    "cobblemon.species.nidoranm.desc"
  ],
  "evolutions": [
    {
      "id": "nidoranm_nidorino",
      "variant": "level_up",
      "result": "nidorino",
      "consumeHeldItem": false,
      "learnableMoves": [],
      "requirements": [
        {
          "variant": "level",
          "minLevel": 16
        }
      ]
    }
  ],
  "baseScale": 0.7,
  "hitbox": {
    "width": 0.7,
    "height": 0.8,
    "fixed": false
  },
  "baseFriendship": 50,
  "evYield": {
    "hp": 0,
    "attack": 1,
    "defence": 0,
    "special_attack": 0,
    "special_defence": 0,
    "speed": 0
  },
  "height": 5,
  "weight": 90,
  "aspects": [],
  "cannotDynamax": false
}