{
  "implemented": true,
  "name": "Rhyhorn",
  "nationalPokedexNumber": 111,
  "primaryType": "ground",
  "secondaryType": "rock",
  "abilities": [
    "lightningrod",
    "rockhead",
    "h:reckless"
  ],
  "baseStats": {
    "hp": 80,
    "attack": 85,
    "defence": 95,
    "special_attack": 30,
    "special_defence": 30,
    "speed": 25
  },
  "catchRate": 120,
  "maleRatio": 0.5,
  "shoulderMountable": false,
  "baseExperienceYield": 69,
  "experienceGroup": "slow",
  "eggCycles": 20,
  "eggGroups": [
    "monster",
    "field"
  ],
  "moves": [
    "1:tackle",
    "1:tailwhip",
    "5:smackdown",
    "10:bulldoze",
    "15:hornattack",
    "20:scaryface",
    "25:chipaway",
    "25:stomp",
    "30:rockblast",
    "35:drillrun",
    "40:takedown",
    "45:earthquake",
    "50:stoneedge",
    "55:megahorn",
    "60:horndrill",
    "egg:counter",
    "egg:crushclaw",
    "egg:curse",
    "egg:dragonrush",
    "egg:guardsplit",
    "egg:magnitude",
    "egg:metalburst",
    "egg:rockclimb",
    "egg:rockpolish",
    "egg:rototiller",
    "egg:skullbash",
    "tm:attract",
    "tm:blizzard",
    "tm:bodyslam",
    "tm:bulldoze",
    "tm:captivate",
    "tm:confide",
    "tm:crunch",
    "tm:dig",
    "tm:doubleteam",
    "tm:dragonpulse",
    "tm:drillrun",
    "tm:earthpower",
    "tm:earthquake",
    "tm:endure",
    "tm:facade",
    "tm:fireblast",
    "tm:firefang",
    "tm:flamethrower",
    "tm:frustration",
    "tm:hiddenpower",
    "tm:highhorsepower",
    "tm:icebeam",
    "tm:icefang",
    "tm:icywind",
    "tm:incinerate",
    "tm:irontail",
    "tm:megahorn",
    "tm:mudshot",
    "tm:naturalgift",
    "tm:payback",
    "tm:poisonjab",
    "tm:protect",
    "tm:raindance",
    "tm:rest",
    "tm:return",
    "tm:reversal",
    "tm:roar",
    "tm:rockblast",
    "tm:rockslide",
    "tm:rocktomb",
    "tm:round",
    "tm:sandstorm",
    "tm:scaryface",
    "tm:secretpower",
    "tm:sleeptalk",
    "tm:smartstrike",
    "tm:snore",
    "tm:stealthrock",
    "tm:stompingtantrum",
    "tm:stoneedge",
    "tm:substitute",
    "tm:sunnyday",
    "tm:superpower",
    "tm:swagger",
    "tm:swordsdance",
    "tm:thief",
    "tm:thunder",
    "tm:thunderbolt",
    "tm:thunderfang",
    "tm:uproar",
    "tutor:ancientpower",
    "tutor:aquatail",
    "tutor:bide",
    "tutor:blizzard",
    "tutor:dig",
    "tutor:doubleedge",
    "tutor:doubleteam",
    "tutor:dragonpulse",
    "tutor:drillrun",
    "tutor:earthquake",
    "tutor:endeavor",
    "tutor:facade",
    "tutor:fireblast",
    "tutor:fissure",
    "tutor:flamethrower",
    "tutor:frustration",
    "tutor:furyattack",
    "tutor:headbutt",
    "tutor:hiddenpower",
    "tutor:hornattack",
    "tutor:horndrill",
    "tutor:icebeam",
    "tutor:irontail",
    "tutor:leer",
    "tutor:magnitude",
    "tutor:megahorn",
    "tutor:mimic",
    "tutor:mudslap",
    "tutor:poisonjab",
    "tutor:protect",
    "tutor:pursuit",
    "tutor:rage",
    "tutor:rest",
    "tutor:return",
    "tutor:roar",
    "tutor:rockslide",
    "tutor:rocksmash",
    "tutor:rockthrow",
    "tutor:rollout",
    "tutor:sandattack",
    "tutor:scorchingsands",
    "tutor:shockwave",
    "tutor:spite",
    "tutor:stealthrock",
    "tutor:stomp",
    "tutor:strength",
    "tutor:substitute",
    "tutor:superpower",
    "tutor:swagger",
    "tutor:tailwhip",
    "tutor:takedown",
    "tutor:thrash",
    "tutor:thunder",
    "tutor:thunderbolt",
    "tutor:toxic",
    "tutor:zapcannon"
  ],
  "labels": [
    "gen1"
  ],
  "pokedex": [
    "cobblemon.species.rhyhorn.desc"
  ],
  "evolutions": [
    {
      "id": "rhyhorn_rhydon",
      "variant": "level_up",
      "result": "rhydon",
      "consumeHeldItem": false,
      "learnableMoves": [
        "hammerarm"
      ],
      "requirements": [
        {
          "variant": "level",
          "minLevel": 42
        }
      ]
    }
  ],
  "baseScale": 1.2,
  "hitbox": {
    "width": 1.2,
    "height": 0.8,
    "fixed": false
  },
  "baseFriendship": 50,
  "evYield": {
    "hp": 0,
    "attack": 0,
    "defence": 1,
    "special_attack": 0,
    "special_defence": 0,
    "speed": 0
  },
  "height": 10,
  "weight": 1150,
  "aspects": [],
  "cannotDynamax": false
}