{
  "implemented": true,
  "name": "Venomoth",
  "nationalPokedexNumber": 49,
  "primaryType": "bug",
  "secondaryType": "poison",
  "abilities": [
    "shielddust",
    "tintedlens",
    "h:wonderskin"
  ],
  "baseStats": {
    "hp": 70,
    "attack": 65,
    "defence": 60,
    "special_attack": 90,
    "special_defence": 75,
    "speed": 90
  },
  "catchRate": 75,
  "maleRatio": 0.5,
  "shoulderMountable": false,
  "baseExperienceYield": 158,
  "experienceGroup": "medium_fast",
  "eggCycles": 20,
  "eggGroups": [
    "bug"
  ],
  "behaviour": {
    "moving": {
      "swim": {
        "canWalkOnWater": true
      },
      "fly": {
        "canFly": true
      }
    },
    "resting": {
      "canSleep": true,
      "willSleepOnBed": false,
      "depth": "normal",
      "light": "0-4"
    }
  },
  "moves": [
    "1:disable",
    "1:foresight",
    "1:quiverdance",
    "1:silverwind",
    "1:supersonic",
    "1:tackle",
    "11:confusion",
    "13:poisonpowder",
    "17:psybeam",
    "23:stunspore",
    "25:bugbuzz",
    "25:signalbeam",
    "29:sleeppowder",
    "37:leechlife",
    "41:zenheadbutt",
    "47:poisonfang",
    "55:psychic",
    "tm:acidspray",
    "tm:acrobatics",
    "tm:aerialace",
    "tm:agility",
    "tm:aircutter",
    "tm:airslash",
    "tm:attract",
    "tm:batonpass",
    "tm:bugbuzz",
    "tm:captivate",
    "tm:confide",
    "tm:confuseray",
    "tm:doubleteam",
    "tm:endure",
    "tm:energyball",
    "tm:facade",
    "tm:frustration",
    "tm:gigadrain",
    "tm:gigaimpact",
    "tm:hiddenpower",
    "tm:hyperbeam",
    "tm:infestation",
    "tm:leechlife",
    "tm:naturalgift",
    "tm:nightshade",
    "tm:pounce",
    "tm:protect",
    "tm:psybeam",
    "tm:psychic",
    "tm:rest",
    "tm:return",
    "tm:round",
    "tm:secretpower",
    "tm:skillswap",
    "tm:sleeptalk",
    "tm:sludgebomb",
    "tm:solarbeam",
    "tm:strugglebug",
    "tm:substitute",
    "tm:sunnyday",
    "tm:swagger",
    "tm:swift",
    "tm:takedown",
    "tm:terablast",
    "tm:thief",
    "tm:toxicspikes",
    "tm:uturn",
    "tm:venoshock",
    "tm:zenheadbutt",
    "tutor:attract",
    "tutor:bide",
    "tutor:bugbite",
    "tutor:curse",
    "tutor:defog",
    "tutor:doubleedge",
    "tutor:doubleteam",
    "tutor:dreameater",
    "tutor:flash",
    "tutor:foresight",
    "tutor:frustration",
    "tutor:gust",
    "tutor:headbutt",
    "tutor:hiddenpower",
    "tutor:megadrain",
    "tutor:mimic",
    "tutor:ominouswind",
    "tutor:psywave",
    "tutor:rage",
    "tutor:razorwind",
    "tutor:reflect",
    "tutor:refresh",
    "tutor:return",
    "tutor:roost",
    "tutor:screech",
    "tutor:signalbeam",
    "tutor:snore",
    "tutor:snore",
    "tutor:stringshot",
    "tutor:swagger",
    "tutor:sweetscent",
    "tutor:tailwind",
    "tutor:teleport",
    "tutor:toxic",
    "tutor:twister",
    "tutor:whirlwind"
  ],
  "labels": [
    "gen1"
  ],
  "pokedex": [
    "cobblemon.species.venomoth.desc"
  ],
  "preEvolution": "venonat",
  "evolutions": [],
  "baseScale": 0.9,
  "hitbox": {
    "width": 0.9,
    "height": 1.3,
    "fixed": false
  },
  "baseFriendship": 70,
  "evYield": {
    "hp": 0,
    "attack": 0,
    "defence": 0,
    "special_attack": 1,
    "special_defence": 0,
    "speed": 1
  },
  "height": 15,
  "weight": 125,
  "aspects": [],
  "cannotDynamax": false
}