{
	"format_version": "1.12.0",
	"minecraft:geometry": [
		{
			"description": {
				"identifier": "geometry.mamoswine_male",
				"texture_width": 128,
				"texture_height": 128,
				"visible_bounds_width": 3,
				"visible_bounds_height": 2.5,
				"visible_bounds_offset": [0, 0.75, 0]
			},
			"bones": [
				{
					"name": "mamoswine",
					"pivot": [0, 0, 0]
				},
				{
					"name": "body",
					"parent": "mamoswine",
					"pivot": [0, 11.5, 1.75],
					"cubes": [
						{"origin": [-6.5, 3.25, 3], "size": [13, 16, 8], "uv": [0, 28]},
						{"origin": [-7, 3.25, -8], "size": [14, 17, 11], "uv": [0, 0]},
						{"origin": [1.5, 12, -8.75], "size": [5, 7, 1], "pivot": [0, 15.5, -8.25], "rotation": [-2.5, 0, 0], "uv": [22, 63]},
						{"origin": [-1.5, 13, -8.75], "size": [3, 5, 1], "pivot": [0, 15.5, -8.25], "rotation": [-2.5, 0, 0], "uv": [16, 52]},
						{"origin": [-6.5, 12, -8.75], "size": [5, 7, 1], "pivot": [0, 15.5, -8.25], "rotation": [-2.5, 0, 0], "uv": [51, 65]},
						{"origin": [-2, 10.5, -10.25], "size": [4, 3, 3], "pivot": [-0.5, 11.5, -9.25], "rotation": [5, 0, 0], "uv": [34, 28]},
						{"origin": [-5, 8.26712, -9.1422], "size": [10, 7, 0], "pivot": [-1, 10.76712, -9.1422], "rotation": [-5, 0, 0], "uv": [58, 27]}
					]
				},
				{
					"name": "lefteye",
					"parent": "body",
					"pivot": [3.84741, 15.43466, -8.7886],
					"rotation": [0, 0, -20],
					"cubes": [
						{"origin": [2.34741, 13.93276, -8.76051], "size": [3, 3, 0], "pivot": [4.07399, 16.0772, -8.7309], "rotation": [-2.5, 0, 0], "uv": [0, 71]}
					]
				},
				{
					"name": "righteye",
					"parent": "body",
					"pivot": [-3.84741, 15.43466, -8.7886],
					"rotation": [0, 0, 20],
					"cubes": [
						{"origin": [-5.34741, 13.93276, -8.76051], "size": [3, 3, 0], "pivot": [-4.07399, 16.0772, -8.7309], "rotation": [-2.5, 0, 0], "uv": [0, 71], "mirror": true}
					]
				},
				{
					"name": "lefteyelid",
					"parent": "body",
					"pivot": [3.84741, 15.43466, -8.5386],
					"rotation": [0, 0, -20],
					"cubes": [
						{"origin": [2.34741, 13.93276, -8.51051], "size": [3, 3, 1], "inflate": 0.02, "pivot": [4.07399, 16.0772, -8.4809], "rotation": [-2.5, 0, 0], "uv": [0, 78]}
					]
				},
				{
					"name": "righteyelid",
					"parent": "body",
					"pivot": [-3.84741, 15.43466, -8.5386],
					"rotation": [0, 0, 20],
					"cubes": [
						{"origin": [-5.34741, 13.93276, -8.51051], "size": [3, 3, 1], "inflate": 0.02, "pivot": [-4.07399, 16.0772, -8.4809], "rotation": [-2.5, 0, 0], "uv": [0, 78], "mirror": true}
					]
				},
				{
					"name": "leftfrontleg",
					"parent": "body",
					"pivot": [5.5, 9, -3],
					"cubes": [
						{"origin": [3, 0, -6], "size": [5, 11, 6], "uv": [42, 45]},
						{"origin": [7.85285, 1.89574, -6], "size": [1, 0, 6], "pivot": [8.35285, 1.89574, -3], "rotation": [0, 0, 45], "uv": [47, 0]},
						{"origin": [7.01727, 3.91301, -6.5], "size": [1, 0, 6], "pivot": [5.5, 1.89574, -3.5], "rotation": [90, 45, 90], "uv": [40, 45]},
						{"origin": [2.98273, 3.91301, -5.5], "size": [1, 0, 6], "pivot": [5.5, 1.89574, -2.5], "rotation": [-90, 45, -90], "uv": [38, 45]},
						{"origin": [2.14715, 1.89574, -6], "size": [1, 0, 6], "pivot": [2.64715, 1.89574, -3], "rotation": [0, 0, -45], "uv": [46, 16]}
					]
				},
				{
					"name": "rightfrontleg",
					"parent": "body",
					"pivot": [-5.5, 9, -3],
					"cubes": [
						{"origin": [-8, 0, -6], "size": [5, 11, 6], "uv": [42, 28]},
						{"origin": [-8.85285, 1.89574, -6], "size": [1, 0, 6], "pivot": [-8.35285, 1.89574, -3], "rotation": [0, 0, -45], "uv": [36, 45]},
						{"origin": [-8.01727, 3.91301, -6.5], "size": [1, 0, 6], "pivot": [-5.5, 1.89574, -3.5], "rotation": [90, -45, -90], "uv": [45, 0]},
						{"origin": [-3.98273, 3.91301, -5.5], "size": [1, 0, 6], "pivot": [-5.5, 1.89574, -2.5], "rotation": [-90, -45, 90], "uv": [44, 16]},
						{"origin": [-3.14715, 1.89574, -6], "size": [1, 0, 6], "pivot": [-2.64715, 1.89574, -3], "rotation": [0, 0, 45], "uv": [43, 0]}
					]
				},
				{
					"name": "leftbackleg",
					"parent": "body",
					"pivot": [5, 8, 7],
					"cubes": [
						{"origin": [2.5, 0, 4], "size": [5, 10, 6], "uv": [50, 0]},
						{"origin": [7.35285, 1.64574, 4], "size": [1, 0, 6], "pivot": [7.85285, 1.64574, 7], "rotation": [0, 0, 45], "uv": [33, 0]},
						{"origin": [6.51727, 3.66301, 3.5], "size": [1, 0, 6], "pivot": [5, 1.64574, 6.5], "rotation": [90, 45, 90], "uv": [0, 28]},
						{"origin": [2.48273, 3.66301, 4.5], "size": [1, 0, 6], "pivot": [5, 1.64574, 7.5], "rotation": [-90, 45, -90], "uv": [2, 0]},
						{"origin": [1.64715, 1.64574, 4], "size": [1, 0, 6], "pivot": [2.14715, 1.64574, 7], "rotation": [0, 0, -45], "uv": [0, 0]}
					]
				},
				{
					"name": "rightbackleg",
					"parent": "body",
					"pivot": [-5, 8, 7],
					"cubes": [
						{"origin": [-7.5, 0, 4], "size": [5, 10, 6], "uv": [0, 52]},
						{"origin": [-8.35285, 1.64574, 4], "size": [1, 0, 6], "pivot": [-7.85285, 1.64574, 7], "rotation": [0, 0, -45], "uv": [41, 0]},
						{"origin": [-7.51727, 3.66301, 3.5], "size": [1, 0, 6], "pivot": [-5, 1.64574, 6.5], "rotation": [90, -45, -90], "uv": [39, 0]},
						{"origin": [-3.48273, 3.66301, 4.5], "size": [1, 0, 6], "pivot": [-5, 1.64574, 7.5], "rotation": [-90, -45, 90], "uv": [37, 0]},
						{"origin": [-2.64715, 1.64574, 4], "size": [1, 0, 6], "pivot": [-2.14715, 1.64574, 7], "rotation": [0, 0, 45], "uv": [35, 0]}
					]
				},
				{
					"name": "tail",
					"parent": "body",
					"pivot": [0, 10, 11],
					"cubes": [
						{"origin": [0, 8, 11], "size": [0, 4, 3], "uv": [0, 0]}
					]
				},
				{
					"name": "lefttusk",
					"parent": "body",
					"pivot": [5.25, 7.5, -6.5],
					"rotation": [37.5, -10, -5],
					"cubes": [
						{"origin": [3.75, 5.5, -13.5], "size": [3, 4, 7], "inflate": 0.02, "uv": [22, 52]},
						{"origin": [3.75, 8.2622, -16.97348], "size": [3, 3, 7], "pivot": [5.25, 10.26829, -14.38981], "rotation": [-55, 0, 0], "uv": [58, 38]},
						{"origin": [4.16268, 9.72951, -16.63958], "size": [2, 2, 5], "pivot": [5.25, 12.61138, -13.74784], "rotation": [-105, 0, 0], "uv": [63, 16]},
						{"origin": [5.2051, 8.69487, -17.56051], "size": [0, 2, 3], "pivot": [5.25, 12.61138, -13.74784], "rotation": [-140, 0, 0], "uv": [0, 6]}
					]
				},
				{
					"name": "righttusk",
					"parent": "body",
					"pivot": [-5.25, 7.5, -6.5],
					"rotation": [37.5, 10, 5],
					"cubes": [
						{"origin": [-6.75, 5.5, -13.5], "size": [3, 4, 7], "inflate": 0.02, "uv": [50, 16]},
						{"origin": [-6.75, 8.2622, -16.97348], "size": [3, 3, 7], "pivot": [-5.25, 10.26829, -14.38981], "rotation": [-55, 0, 0], "uv": [57, 55]},
						{"origin": [-6.16268, 9.72951, -16.63958], "size": [2, 2, 5], "pivot": [-5.25, 12.61138, -13.74784], "rotation": [-105, 0, 0], "uv": [37, 62]},
						{"origin": [-5.2051, 8.69487, -17.56051], "size": [0, 2, 3], "pivot": [-5.25, 12.61138, -13.74784], "rotation": [-140, 0, 0], "uv": [0, 4]}
					]
				}
			]
		}
	]
}