{
  "implemented": true,
  "name": "Carvanha",
  "nationalPokedexNumber": 318,
  "primaryType": "water",
  "secondaryType": "dark",
  "abilities": [
    "roughskin",
    "h:speedboost"
  ],
  "baseStats": {
    "hp": 45,
    "attack": 90,
    "defence": 20,
    "special_attack": 65,
    "special_defence": 20,
    "speed": 65
  },
  "catchRate": 225,
  "maleRatio": 0.5,
  "shoulderMountable": false,
  "baseExperienceYield": 61,
  "experienceGroup": "slow",
  "eggCycles": 20,
  "eggGroups": [
    "water_2"
  ],
  "moves": [
    "1:aquajet",
    "1:leer",
    "4:poisonfang",
    "4:rage",
    "8:focusenergy",
    "12:scaryface",
    "16:bite",
    "20:icefang",
    "24:screech",
    "28:swagger",
    "32:crunch",
    "36:agility",
    "40:liquidation",
    "44:takedown",
    "egg:ancientpower",
    "egg:destinybond",
    "egg:doubleedge",
    "egg:thrash",
    "egg:waterpulse",
    "tm:agility",
    "tm:assurance",
    "tm:attract",
    "tm:blizzard",
    "tm:bounce",
    "tm:brine",
    "tm:captivate",
    "tm:confide",
    "tm:crunch",
    "tm:darkpulse",
    "tm:dive",
    "tm:doubleteam",
    "tm:endure",
    "tm:facade",
    "tm:focusenergy",
    "tm:frustration",
    "tm:hail",
    "tm:hiddenpower",
    "tm:hydropump",
    "tm:icebeam",
    "tm:icefang",
    "tm:icywind",
    "tm:liquidation",
    "tm:naturalgift",
    "tm:payback",
    "tm:protect",
    "tm:psychicfangs",
    "tm:raindance",
    "tm:rest",
    "tm:retaliate",
    "tm:return",
    "tm:round",
    "tm:scald",
    "tm:scaryface",
    "tm:screech",
    "tm:secretpower",
    "tm:sleeptalk",
    "tm:snarl",
    "tm:snore",
    "tm:substitute",
    "tm:surf",
    "tm:swift",
    "tm:taunt",
    "tm:thief",
    "tm:torment",
    "tm:toxic",
    "tm:uproar",
    "tm:waterfall",
    "tm:whirlpool",
    "tm:zenheadbutt",
    "tutor:flipturn",
    "tutor:furycutter",
    "tutor:mimic",
    "tutor:mudslap",
    "tutor:refresh",
    "tutor:scaleshot",
    "tutor:spite",
    "tutor:superfang"
  ],
  "labels": [
    "gen3"
  ],
  "pokedex": [
    "cobblemon.species.carvanha.desc"
  ],
  "evolutions": [
    {
      "id": "carvanha_sharpedo",
      "variant": "level_up",
      "result": "sharpedo",
      "consumeHeldItem": false,
      "learnableMoves": [
        "slash"
      ],
      "requirements": [
        {
          "variant": "level",
          "minLevel": 30
        }
      ]
    }
  ],
  "baseScale": 0.7,
  "hitbox": {
    "width": 0.7,
    "height": 1.1,
    "fixed": false
  },
  "baseFriendship": 35,
  "evYield": {
    "hp": 0,
    "attack": 1,
    "defence": 0,
    "special_attack": 0,
    "special_defence": 0,
    "speed": 0
  },
  "height": 8,
  "weight": 208,
  "aspects": [],
  "cannotDynamax": false
}