{
  "name": "Clamperl",
  "nationalPokedexNumber": 366,
  "primaryType": "water",
  "abilities": [
    "shellarmor",
    "h:rattled"
  ],
  "baseStats": {
    "hp": 35,
    "attack": 64,
    "defence": 85,
    "special_attack": 74,
    "special_defence": 55,
    "speed": 32
  },
  "behaviour": {
    "moving": {
      "swim": {
        "swimSpeed": 0.1,
        "canSwimInWater": false,
        "canBreatheUnderwater": true
      }
    }
  },
  "catchRate": 255,
  "maleRatio": 0.5,
  "shoulderMountable": false,
  "baseExperienceYield": 69,
  "experienceGroup": "erratic",
  "eggCycles": 20,
  "eggGroups": [
    "water_1"
  ],
  "moves": [
    "1:clamp",
    "1:irondefense",
    "1:watergun",
    "1:whirlpool",
    "50:shellsmash",
    "egg:aquaring",
    "egg:barrier",
    "egg:bodyslam",
    "egg:brine",
    "egg:confuseray",
    "egg:endure",
    "egg:muddywater",
    "egg:mudsport",
    "egg:refresh",
    "egg:supersonic",
    "egg:waterpulse",
    "tm:attract",
    "tm:blizzard",
    "tm:confide",
    "tm:dive",
    "tm:doubleteam",
    "tm:facade",
    "tm:frustration",
    "tm:hail",
    "tm:hiddenpower",
    "tm:icebeam",
    "tm:naturalgift",
    "tm:protect",
    "tm:raindance",
    "tm:rest",
    "tm:return",
    "tm:round",
    "tm:scald",
    "tm:secretpower",
    "tm:sleeptalk",
    "tm:substitute",
    "tm:surf",
    "tm:swagger",
    "tm:toxic",
    "tm:waterfall",
    "tutor:captivate",
    "tutor:doubleedge",
    "tutor:icywind",
    "tutor:irondefense",
    "tutor:mimic",
    "tutor:snore",
    "tutor:waterpulse"
  ],
  "labels": [
    "gen3"
  ],
  "pokedex": [
    "cobblemon.species.clamperl.desc"
  ],
  "evolutions": [
    {
      "id": "clamperl_huntail",
      "variant": "trade",
      "result": "huntail",
      "consumeHeldItem": true,
      "learnableMoves": [],
      "requirements": [
        {
          "variant": "held_item",
          "itemCondition": "cobblemon:deep_sea_tooth"
        }
      ]
    },
    {
      "id": "clamperl_gorebyss",
      "variant": "trade",
      "result": "gorebyss",
      "consumeHeldItem": true,
      "learnableMoves": [],
      "requirements": [
        {
          "variant": "held_item",
          "itemCondition": "cobblemon:deep_sea_scale"
        }
      ]
    }
  ],
  "baseScale": 1,
  "hitbox": {
    "width": 1,
    "height": 1,
    "fixed": false
  },
  "baseFriendship": 70,
  "evYield": {
    "hp": 0,
    "attack": 0,
    "defence": 1,
    "special_attack": 0,
    "special_defence": 0,
    "speed": 0
  },
  "height": 4,
  "weight": 525,
  "aspects": [],
  "cannotDynamax": false
}