{
  "implemented": true,
  "name": "Claydol",
  "nationalPokedexNumber": 344,
  "primaryType": "ground",
  "secondaryType": "psychic",
  "abilities": [
    "levitate"
  ],
  "baseStats": {
    "hp": 60,
    "attack": 70,
    "defence": 105,
    "special_attack": 70,
    "special_defence": 120,
    "speed": 75
  },
  "behaviour": {
    "resting": {
      "canSleep": true,
      "willSleepOnBed": false,
      "depth": "normal",
      "light": "0-4"
    }
  },
  "catchRate": 90,
  "maleRatio": -1,
  "shoulderMountable": false,
  "baseExperienceYield": 175,
  "experienceGroup": "medium_fast",
  "eggCycles": 20,
  "eggGroups": [
    "mineral"
  ],
  "moves": [
    "1:confusion",
    "1:harden",
    "1:mudslap",
    "1:rapidspin",
    "1:teleport",
    "9:rocktomb",
    "10:healblock",
    "12:powertrick",
    "15:psybeam",
    "18:ancientpower",
    "21:imprison",
    "24:cosmicpower",
    "27:extrasensory",
    "30:earthpower",
    "33:selfdestruct",
    "38:guardsplit",
    "38:powersplit",
    "43:sandstorm",
    "48:explosion",
    "tm:allyswitch",
    "tm:bodypress",
    "tm:bulldoze",
    "tm:calmmind",
    "tm:chargebeam",
    "tm:confide",
    "tm:cosmicpower",
    "tm:dazzlinggleam",
    "tm:dig",
    "tm:doubleteam",
    "tm:dreameater",
    "tm:drillrun",
    "tm:earthpower",
    "tm:earthquake",
    "tm:eerieimpulse",
    "tm:endure",
    "tm:facade",
    "tm:flash",
    "tm:frustration",
    "tm:futuresight",
    "tm:gigaimpact",
    "tm:grassknot",
    "tm:guardswap",
    "tm:gyroball",
    "tm:hex",
    "tm:hiddenpower",
    "tm:hyperbeam",
    "tm:icebeam",
    "tm:imprison",
    "tm:irondefense",
    "tm:lightscreen",
    "tm:nastyplot",
    "tm:naturalgift",
    "tm:powerswap",
    "tm:protect",
    "tm:psychic",
    "tm:psychicterrain",
    "tm:psychup",
    "tm:psyshock",
    "tm:raindance",
    "tm:reflect",
    "tm:rest",
    "tm:return",
    "tm:rockpolish",
    "tm:rockslide",
    "tm:rocksmash",
    "tm:rocktomb",
    "tm:round",
    "tm:safeguard",
    "tm:sandstorm",
    "tm:sandtomb",
    "tm:secretpower",
    "tm:selfdestruct",
    "tm:shadowball",
    "tm:skillswap",
    "tm:sleeptalk",
    "tm:smackdown",
    "tm:snore",
    "tm:solarbeam",
    "tm:stealthrock",
    "tm:stoneedge",
    "tm:storedpower",
    "tm:strength",
    "tm:substitute",
    "tm:sunnyday",
    "tm:swagger",
    "tm:toxic",
    "tm:trick",
    "tm:trickroom",
    "tm:wonderroom",
    "tm:zenheadbutt",
    "tutor:doubleedge",
    "tutor:expandingforce",
    "tutor:gravity",
    "tutor:headbutt",
    "tutor:magiccoat",
    "tutor:mimic",
    "tutor:recycle",
    "tutor:scorchingsands",
    "tutor:signalbeam",
    "tutor:telekinesis"
  ],
  "labels": [
    "gen3"
  ],
  "pokedex": [
    "cobblemon.species.claydol.desc"
  ],
  "preEvolution": "baltoy",
  "evolutions": [],
  "baseScale": 1,
  "hitbox": {
    "width": 1,
    "height": 1,
    "fixed": false
  },
  "baseFriendship": 50,
  "evYield": {
    "hp": 0,
    "attack": 0,
    "defence": 0,
    "special_attack": 0,
    "special_defence": 2,
    "speed": 0
  },
  "height": 15,
  "weight": 1080,
  "aspects": [],
  "cannotDynamax": false
}