{
  "name": "Corphish",
  "nationalPokedexNumber": 341,
  "primaryType": "water",
  "abilities": [
    "hypercutter",
    "shellarmor",
    "h:adaptability"
  ],
  "baseStats": {
    "hp": 43,
    "attack": 80,
    "defence": 65,
    "special_attack": 50,
    "special_defence": 35,
    "speed": 35
  },
  "catchRate": 205,
  "maleRatio": 0.5,
  "shoulderMountable": false,
  "baseExperienceYield": 62,
  "experienceGroup": "fluctuating",
  "eggCycles": 15,
  "eggGroups": [
    "water_1",
    "water_3"
  ],
  "moves": [
    "1:bubble",
    "1:harden",
    "1:watergun",
    "4:leer",
    "7:visegrip",
    "8:taunt",
    "12:bubblebeam",
    "16:knockoff",
    "20:doublehit",
    "24:protect",
    "28:nightslash",
    "32:razorshell",
    "36:swordsdance",
    "40:crunch",
    "44:crabhammer",
    "48:endeavor",
    "52:guillotine",
    "egg:ancientpower",
    "egg:aquajet",
    "egg:chipaway",
    "egg:doubleedge",
    "egg:metalclaw",
    "egg:mudsport",
    "egg:slash",
    "egg:switcheroo",
    "egg:trumpcard",
    "tm:aerialace",
    "tm:attract",
    "tm:blizzard",
    "tm:bodyslam",
    "tm:brickbreak",
    "tm:captivate",
    "tm:confide",
    "tm:crunch",
    "tm:cut",
    "tm:dig",
    "tm:doubleteam",
    "tm:dragondance",
    "tm:endure",
    "tm:facade",
    "tm:falseswipe",
    "tm:fling",
    "tm:frustration",
    "tm:hail",
    "tm:hiddenpower",
    "tm:honeclaws",
    "tm:hydropump",
    "tm:icebeam",
    "tm:icywind",
    "tm:irondefense",
    "tm:muddywater",
    "tm:mudshot",
    "tm:naturalgift",
    "tm:payback",
    "tm:protect",
    "tm:raindance",
    "tm:razorshell",
    "tm:rest",
    "tm:return",
    "tm:rockslide",
    "tm:rocksmash",
    "tm:rocktomb",
    "tm:round",
    "tm:scald",
    "tm:secretpower",
    "tm:sleeptalk",
    "tm:sludgebomb",
    "tm:snore",
    "tm:strength",
    "tm:substitute",
    "tm:superpower",
    "tm:surf",
    "tm:swagger",
    "tm:swordsdance",
    "tm:taunt",
    "tm:toxic",
    "tm:waterfall",
    "tm:whirlpool",
    "tm:xscissor",
    "tutor:counter",
    "tutor:furycutter",
    "tutor:mimic",
    "tutor:mudslap",
    "tutor:spite",
    "tutor:waterpulse",
    "tutor:watersport"
  ],
  "labels": [
    "gen3"
  ],
  "pokedex": [
    "cobblemon.species.corphish.desc"
  ],
  "evolutions": [
    {
      "id": "corphish_crawdaunt",
      "variant": "level_up",
      "result": "crawdaunt",
      "consumeHeldItem": false,
      "learnableMoves": [
        "swift"
      ],
      "requirements": [
        {
          "variant": "level",
          "minLevel": 30
        }
      ]
    }
  ],
  "baseScale": 1,
  "hitbox": {
    "width": 1,
    "height": 1,
    "fixed": false
  },
  "baseFriendship": 50,
  "evYield": {
    "hp": 0,
    "attack": 1,
    "defence": 0,
    "special_attack": 0,
    "special_defence": 0,
    "speed": 0
  },
  "height": 6,
  "weight": 115,
  "aspects": [],
  "cannotDynamax": false
}