{
  "implemented": true,
  "name": "Loudred",
  "nationalPokedexNumber": 294,
  "primaryType": "normal",
  "abilities": [
    "soundproof",
    "h:scrappy"
  ],
  "baseStats": {
    "hp": 84,
    "attack": 71,
    "defence": 43,
    "special_attack": 71,
    "special_defence": 43,
    "speed": 48
  },
  "catchRate": 120,
  "maleRatio": 0.5,
  "shoulderMountable": false,
  "baseExperienceYield": 126,
  "experienceGroup": "medium_slow",
  "eggCycles": 20,
  "eggGroups": [
    "monster",
    "field"
  ],
  "moves": [
    "1:astonish",
    "1:echoedvoice",
    "1:howl",
    "1:pound",
    "15:rest",
    "15:sleeptalk",
    "23:stomp",
    "29:roar",
    "36:supersonic",
    "43:uproar",
    "50:screech",
    "50:synchronoise",
    "57:hypervoice",
    "tm:attract",
    "tm:blizzard",
    "tm:bodyslam",
    "tm:brickbreak",
    "tm:bulldoze",
    "tm:captivate",
    "tm:confide",
    "tm:doubleteam",
    "tm:earthquake",
    "tm:endure",
    "tm:facade",
    "tm:faketears",
    "tm:fireblast",
    "tm:firepunch",
    "tm:flamethrower",
    "tm:fling",
    "tm:frustration",
    "tm:hiddenpower",
    "tm:hypervoice",
    "tm:icebeam",
    "tm:icepunch",
    "tm:icywind",
    "tm:incinerate",
    "tm:lowkick",
    "tm:megakick",
    "tm:megapunch",
    "tm:naturalgift",
    "tm:overheat",
    "tm:poweruppunch",
    "tm:protect",
    "tm:raindance",
    "tm:rest",
    "tm:retaliate",
    "tm:return",
    "tm:rockslide",
    "tm:rocksmash",
    "tm:rocktomb",
    "tm:round",
    "tm:screech",
    "tm:secretpower",
    "tm:shadowball",
    "tm:sleeptalk",
    "tm:smackdown",
    "tm:snore",
    "tm:solarbeam",
    "tm:stompingtantrum",
    "tm:strength",
    "tm:substitute",
    "tm:sunnyday",
    "tm:swagger",
    "tm:taunt",
    "tm:thunderpunch",
    "tm:torment",
    "tm:toxic",
    "tm:uproar",
    "tm:workup",
    "tm:zenheadbutt",
    "tutor:counter",
    "tutor:defensecurl",
    "tutor:doubleedge",
    "tutor:dynamicpunch",
    "tutor:endeavor",
    "tutor:headbutt",
    "tutor:mimic",
    "tutor:mudslap",
    "tutor:psychup",
    "tutor:rollout",
    "tutor:seismictoss",
    "tutor:shockwave",
    "tutor:waterpulse"
  ],
  "labels": [
    "gen3"
  ],
  "pokedex": [
    "cobblemon.species.loudred.desc"
  ],
  "preEvolution": "whismur",
  "evolutions": [
    {
      "id": "loudred_exploud",
      "variant": "level_up",
      "result": "exploud",
      "consumeHeldItem": false,
      "learnableMoves": [
        "crunch"
      ],
      "requirements": [
        {
          "variant": "level",
          "minLevel": 40
        }
      ]
    }
  ],
  "baseScale": 0.9,
  "hitbox": {
    "width": 1,
    "height": 1.3,
    "fixed": false
  },
  "baseFriendship": 50,
  "evYield": {
    "hp": 2,
    "attack": 0,
    "defence": 0,
    "special_attack": 0,
    "special_defence": 0,
    "speed": 0
  },
  "height": 10,
  "weight": 405,
  "aspects": [],
  "cannotDynamax": false
}