{
	"format_version": "1.12.0",
	"minecraft:geometry": [
		{
			"description": {
				"identifier": "geometry.nidorino",
				"texture_width": 64,
				"texture_height": 64,
				"visible_bounds_width": 3,
				"visible_bounds_height": 2.5,
				"visible_bounds_offset": [0, 0.75, 0]
			},
			"bones": [
				{
					"name": "nidorino",
					"pivot": [0, 0, 0]
				},
				{
					"name": "body",
					"parent": "nidorino",
					"pivot": [0, 6.25, 0.5],
					"cubes": [
						{"origin": [-4, 2.75, -6.5], "size": [8, 7, 14], "uv": [0, 0]},
						{"origin": [0, 4.75, -4.5], "size": [0, 12, 17], "uv": [0, 4]}
					]
				},
				{
					"name": "head",
					"parent": "body",
					"pivot": [0, 8.25, -5.25],
					"cubes": [
						{"origin": [-3.5, 5, -12.5], "size": [7, 6, 8], "pivot": [0, 8.5, -8.5], "rotation": [5, 0, 0], "uv": [26, 25]},
						{"origin": [0, 7.67403, -14.71604], "size": [0, 6, 3], "pivot": [0, 10.67403, -13.21604], "rotation": [65, 0, 0], "uv": [0, 41]}
					]
				},
				{
					"name": "eyes",
					"parent": "head",
					"pivot": [0, 8.94438, -10.26893],
					"cubes": [
						{"origin": [3.5, 8.07379, -11.78597], "size": [0, 2, 3], "inflate": 0.02, "pivot": [3.5, 9.07379, -9.78597], "rotation": [15, 0, 0], "uv": [58, -3], "mirror": true},
						{"origin": [-3.5, 8.07379, -11.78597], "size": [0, 2, 3], "inflate": 0.02, "pivot": [-3.5, 9.07379, -9.78597], "rotation": [15, 0, 0], "uv": [58, -3]}
					]
				},
				{
					"name": "eyelid_left",
					"parent": "head",
					"pivot": [2.9, 8.94438, -10.26893],
					"cubes": [
						{"origin": [2.4, 8.07379, -11.78597], "size": [1, 2, 3], "inflate": 0.04, "pivot": [3.5, 9.07379, -9.78597], "rotation": [15, 0, 0], "uv": [58, -3], "mirror": true}
					]
				},
				{
					"name": "eyelid_right",
					"parent": "head",
					"pivot": [-2.9, 8.94438, -10.26893],
					"cubes": [
						{"origin": [-3.4, 8.07379, -11.78597], "size": [1, 2, 3], "inflate": 0.04, "pivot": [-3.5, 9.07379, -9.78597], "rotation": [15, 0, 0], "uv": [58, -3]}
					]
				},
				{
					"name": "ear_left",
					"parent": "head",
					"pivot": [3, 11, -8.5],
					"rotation": [-30, 6, 20],
					"cubes": [
						{"origin": [3, 11, -11.5], "size": [0, 11, 6], "pivot": [3, 16.5, -8.5], "rotation": [5, 0, 0], "uv": [0, 27]}
					]
				},
				{
					"name": "ear_right",
					"parent": "head",
					"pivot": [-3, 11, -8.5],
					"rotation": [-30, -6, -20],
					"cubes": [
						{"origin": [-3, 11, -11.5], "size": [0, 11, 6], "pivot": [-3, 16.5, -8.5], "rotation": [5, 0, 0], "uv": [12, 27]}
					]
				},
				{
					"name": "leg_front_left",
					"parent": "body",
					"pivot": [3.25, 5.5, -3.5],
					"cubes": [
						{"origin": [1.75, 0, -5.5], "size": [3, 7, 4], "uv": [24, 39]},
						{"origin": [3.25, 0, -6.5], "size": [0, 1, 1], "inflate": 0.02, "uv": [2, 1]},
						{"origin": [1.91416, 0, -6.49258], "size": [0, 1, 1], "inflate": 0.02, "pivot": [1.91416, 0.5, -5.99258], "rotation": [0, 10, 0], "uv": [2, 2]},
						{"origin": [4.58584, 0, -6.49258], "size": [0, 1, 1], "inflate": 0.02, "pivot": [4.58584, 0.5, -5.99258], "rotation": [0, -10, 0], "uv": [0, 10]}
					]
				},
				{
					"name": "leg_front_right",
					"parent": "body",
					"pivot": [-3.25, 5.5, -3.5],
					"cubes": [
						{"origin": [-4.75, 0, -5.5], "size": [3, 7, 4], "uv": [38, 39]},
						{"origin": [-3.25, 0, -6.5], "size": [0, 1, 1], "inflate": 0.02, "uv": [10, 0]},
						{"origin": [-4.58584, 0, -6.49258], "size": [0, 1, 1], "inflate": 0.02, "pivot": [-4.58584, 0.5, -5.99258], "rotation": [0, 10, 0], "uv": [2, 10]},
						{"origin": [-1.91416, 0, -6.49258], "size": [0, 1, 1], "inflate": 0.02, "pivot": [-1.91416, 0.5, -5.99258], "rotation": [0, -10, 0], "uv": [10, 1]}
					]
				},
				{
					"name": "leg_back_left",
					"parent": "body",
					"pivot": [3.25, 5.5, 5.25],
					"cubes": [
						{"origin": [1.75, 0, 3.25], "size": [3, 7, 4], "uv": [30, 0]},
						{"origin": [4.33584, 0, 2.25742], "size": [0, 1, 1], "inflate": 0.02, "pivot": [4.33584, 0.5, 2.75742], "rotation": [0, -10, 0], "uv": [0, 0]},
						{"origin": [2.16416, 0, 2.25742], "size": [0, 1, 1], "inflate": 0.02, "pivot": [2.16416, 0.5, 2.75742], "rotation": [0, 10, 0], "uv": [0, 1]}
					]
				},
				{
					"name": "leg_back_right",
					"parent": "body",
					"pivot": [-3.25, 5.5, 5.25],
					"cubes": [
						{"origin": [-4.75, 0, 3.25], "size": [3, 7, 4], "uv": [0, 0]},
						{"origin": [-2.16416, 0, 2.25742], "size": [0, 1, 1], "inflate": 0.02, "pivot": [-2.16416, 0.5, 2.75742], "rotation": [0, -10, 0], "uv": [2, 0]},
						{"origin": [-4.33584, 0, 2.25742], "size": [0, 1, 1], "inflate": 0.02, "pivot": [-4.33584, 0.5, 2.75742], "rotation": [0, 10, 0], "uv": [0, 2]}
					]
				}
			]
		}
	]
}